0
SECTION
2
ENTITIES
0
3DFACE
8
layer
62
0
10
281636.312500
20
770112.687500
30
303.440002
11
281628.312500
21
770312.562500
31
304.619995
12
281626.875000
22
770311.000000
32
304.607300
13
281626.875000
23
770311.000000
33
304.607300
0
3DFACE
8
layer
62
0
10
281644.312500
20
769912.875000
30
294.429993
11
281636.312500
21
770112.687500
31
303.440002
12
281626.875000
22
770102.500000
32
303.308685
13
281626.875000
23
770102.500000
33
303.308685
0
3DFACE
8
layer
62
0
10
281652.312500
20
769713.000000
30
286.730011
11
281644.312500
21
769912.875000
31
294.429993
12
281626.875000
22
769894.000000
32
293.822845
13
281626.875000
23
769894.000000
33
293.822845
0
3DFACE
8
layer
62
0
10
281660.312500
20
769513.187500
30
260.690002
11
281652.312500
21
769713.000000
31
286.730011
12
281626.875000
22
769685.437500
32
283.457458
13
281626.875000
23
769685.437500
33
283.457458
0
3DFACE
8
layer
62
0
10
281668.312500
20
769313.375000
30
263.059998
11
281660.312500
21
769513.187500
31
260.690002
12
281626.875000
22
769476.937500
32
262.187286
13
281626.875000
23
769476.937500
33
262.187286
0
3DFACE
8
layer
62
0
10
281676.312500
20
769113.500000
30
286.000000
11
281668.312500
21
769313.375000
31
263.059998
12
281626.875000
22
769268.437500
32
268.317749
13
281626.875000
23
769268.437500
33
268.317749
0
3DFACE
8
layer
62
0
10
281684.312500
20
768913.687500
30
295.220001
11
281676.312500
21
769113.500000
31
286.000000
12
281626.875000
22
769059.937500
32
288.791107
13
281626.875000
23
769059.937500
33
288.791107
0
3DFACE
8
layer
62
0
10
281692.312500
20
768713.812500
30
270.290009
11
281684.312500
21
768913.687500
31
295.220001
12
281626.875000
22
768911.375000
32
295.324921
13
281626.875000
23
768911.375000
33
295.324921
0
3DFACE
8
layer
62
0
10
281700.312500
20
768514.000000
30
255.360001
11
281692.312500
21
768713.812500
31
270.290009
12
281626.875000
22
768642.937500
32
269.583862
13
281626.875000
23
768642.937500
33
269.583862
0
3DFACE
8
layer
62
0
10
281708.312500
20
768314.125000
30
271.500000
11
281700.312500
21
768514.000000
31
255.360001
12
281626.875000
22
768434.437500
32
261.638550
13
281626.875000
23
768434.437500
33
261.638550
0
3DFACE
8
layer
62
0
10
281626.875000
20
768128.187500
30
278.001373
11
281715.750000
21
768128.187500
31
270.653290
12
281708.312500
22
768314.125000
32
271.500000
13
281708.312500
23
768314.125000
33
271.500000
0
3DFACE
8
layer
62
0
10
281812.156250
20
770720.250000
30
309.890015
11
281804.156250
21
770920.062500
31
310.890015
12
281626.875000
22
770728.000000
32
309.272888
13
281626.875000
23
770728.000000
33
309.272888
0
3DFACE
8
layer
62
0
10
281820.156250
20
770520.375000
30
306.769989
11
281812.156250
21
770720.250000
31
309.890015
12
281626.875000
22
770519.500000
32
309.368469
13
281626.875000
23
770519.500000
33
309.368469
0
3DFACE
8
layer
62
0
10
281628.312500
20
770312.562500
30
304.619995
11
281820.156250
21
770520.375000
31
306.769989
12
281626.875000
22
770512.625000
32
309.265228
13
281626.875000
23
770512.625000
33
309.265228
0
3DFACE
8
layer
62
0
10
281626.875000
20
770912.937500
30
309.133606
11
281804.156250
21
770920.062500
31
310.890015
12
281801.843750
22
770922.187500
32
310.950317
13
281801.843750
23
770922.187500
33
310.950317
0
3DFACE
8
layer
62
0
10
282012.000000
20
770728.250000
30
297.299988
11
282219.843750
21
770536.375000
31
299.399994
12
282204.375000
22
770922.187500
32
306.610596
13
282204.375000
23
770922.187500
33
306.610596
0
3DFACE
8
layer
62
0
10
281804.156250
20
770920.062500
30
310.890015
11
281812.156250
21
770720.250000
31
309.890015
12
281998.562500
22
770922.187500
32
301.931610
13
281998.562500
23
770922.187500
33
301.931610
0
3DFACE
8
layer
62
0
10
281812.156250
20
770720.250000
30
309.890015
11
282012.000000
21
770728.250000
31
297.299988
12
282004.218750
22
770922.187500
32
301.570587
13
282004.218750
23
770922.187500
33
301.570587
0
3DFACE
8
layer
62
0
10
282219.843750
20
770536.375000
30
299.399994
11
282411.656250
21
770744.250000
31
310.730011
12
282218.875000
22
770922.187500
32
307.149261
13
282218.875000
23
770922.187500
33
307.149261
0
3DFACE
8
layer
62
0
10
282411.656250
20
770744.250000
30
310.730011
11
282611.500000
21
770752.250000
31
309.869995
12
282604.687500
22
770922.187500
32
306.595673
13
282604.687500
23
770922.187500
33
306.595673
0
3DFACE
8
layer
62
0
10
282611.500000
20
770752.250000
30
309.869995
11
282811.343750
21
770760.250000
31
303.239990
12
282804.875000
22
770922.187500
32
299.195892
13
282804.875000
23
770922.187500
33
299.195892
0
3DFACE
8
layer
62
0
10
282811.343750
20
770760.250000
30
303.239990
11
283011.187500
21
770768.250000
31
296.390015
12
283005.031250
22
770922.187500
32
295.342255
13
283005.031250
23
770922.187500
33
295.342255
0
3DFACE
8
layer
62
0
10
283211.031250
20
770776.250000
30
289.489990
11
283410.875000
21
770784.250000
31
291.890015
12
283405.343750
22
770922.187500
32
298.703552
13
283405.343750
23
770922.187500
33
298.703552
0
3DFACE
8
layer
62
0
10
283011.187500
20
770768.250000
30
296.390015
11
283211.031250
21
770776.250000
31
289.489990
12
283205.187500
22
770922.187500
32
293.875854
13
283205.187500
23
770922.187500
33
293.875854
0
3DFACE
8
layer
62
0
10
283410.875000
20
770784.250000
30
291.890015
11
283618.718750
21
770592.375000
31
297.350006
12
283714.156250
22
770922.187500
32
305.395081
13
283714.156250
23
770922.187500
33
305.395081
0
3DFACE
8
layer
62
0
10
283618.718750
20
770592.375000
30
297.350006
11
283818.562500
21
770600.375000
31
299.130005
12
283805.656250
22
770922.187500
32
306.129242
13
283805.656250
23
770922.187500
33
306.129242
0
3DFACE
8
layer
62
0
10
283818.562500
20
770600.375000
30
299.130005
11
284010.375000
21
770808.250000
31
292.500000
12
283947.593750
22
770922.187500
32
298.222656
13
283947.593750
23
770922.187500
33
298.222656
0
3DFACE
8
layer
62
0
10
284067.437500
20
770810.500000
30
293.165009
11
284067.437500
21
770922.187500
31
299.353912
12
283947.593750
22
770922.187500
32
298.222656
13
283947.593750
23
770922.187500
33
298.222656
0
3DFACE
8
layer
62
0
10
283682.718750
20
768993.687500
30
223.179993
11
283698.718750
21
768594.000000
31
225.610001
12
284067.437500
22
768608.750000
32
223.340652
13
284067.437500
23
768608.750000
33
223.340652
0
3DFACE
8
layer
62
0
10
283698.718750
20
768594.000000
30
225.610001
11
283706.718750
21
768394.125000
31
223.309998
12
284067.437500
22
768592.937500
32
223.162659
13
284067.437500
23
768592.937500
33
223.162659
0
3DFACE
8
layer
62
0
10
283874.562500
20
769201.500000
30
223.229996
11
283682.718750
21
768993.687500
31
223.179993
12
284067.437500
22
768638.562500
32
223.152237
13
284067.437500
23
768638.562500
33
223.152237
0
3DFACE
8
layer
62
0
10
283706.718750
20
768394.125000
30
223.309998
11
283906.562500
21
768402.125000
31
225.330002
12
284067.437500
22
768576.437500
32
223.501999
13
284067.437500
23
768576.437500
33
223.501999
0
3DFACE
8
layer
62
0
10
284066.406250
20
769409.375000
30
223.869995
11
283874.562500
21
769201.500000
31
223.229996
12
284067.437500
22
768691.875000
32
223.161072
13
284067.437500
23
768691.875000
33
223.161072
0
3DFACE
8
layer
62
0
10
283906.562500
20
768402.125000
30
225.330002
11
283914.562500
21
768202.312500
31
236.990005
12
284067.437500
22
768367.937500
32
267.914886
13
284067.437500
23
768367.937500
33
267.914886
0
3DFACE
8
layer
62
0
10
283917.531250
20
768128.187500
30
240.928528
11
284038.593750
21
768128.187500
31
247.283340
12
284067.437500
22
768159.437500
32
247.202240
13
284067.437500
23
768159.437500
33
247.202240
0
3DFACE
8
layer
62
0
10
284010.375000
20
770808.250000
30
292.500000
11
284018.375000
21
770608.375000
31
295.260010
12
284067.437500
22
770661.500000
32
295.150085
13
284067.437500
23
770661.500000
33
295.150085
0
3DFACE
8
layer
62
0
10
284018.375000
20
770608.375000
30
295.260010
11
284026.375000
21
770408.562500
31
289.679993
12
284067.437500
22
770453.000000
32
287.703613
13
284067.437500
23
770453.000000
33
287.703613
0
3DFACE
8
layer
62
0
10
284026.375000
20
770408.562500
30
289.679993
11
284034.375000
21
770208.687500
31
289.859985
12
284067.437500
22
770244.500000
32
286.030548
13
284067.437500
23
770244.500000
33
286.030548
0
3DFACE
8
layer
62
0
10
284034.375000
20
770208.687500
30
289.859985
11
284042.375000
21
770008.875000
31
285.660004
12
284067.437500
22
770022.687500
32
284.509003
13
284067.437500
23
770022.687500
33
284.509003
0
3DFACE
8
layer
62
0
10
284042.375000
20
770008.875000
30
285.660004
11
284050.406250
21
769809.062500
31
275.579987
12
284067.437500
22
769827.500000
32
274.267914
13
284067.437500
23
769827.500000
33
274.267914
0
3DFACE
8
layer
62
0
10
284050.406250
20
769809.062500
30
275.579987
11
284058.406250
21
769609.187500
31
223.410004
12
284067.437500
22
769619.000000
32
223.408585
13
284067.437500
23
769619.000000
33
223.408585
0
3DFACE
8
layer
62
0
10
284058.406250
20
769609.187500
30
223.410004
11
284066.406250
21
769409.375000
31
223.869995
12
284067.437500
22
769409.375000
32
223.871628
13
284067.437500
23
769409.375000
33
223.871628
0
3DFACE
8
layer
62
0
10
281908.156250
20
768322.125000
30
259.480011
11
281708.312500
21
768314.125000
31
271.500000
12
281715.750000
22
768128.187500
32
270.653290
13
281715.750000
23
768128.187500
33
270.653290
0
3DFACE
8
layer
62
0
10
282116.000000
20
768130.312500
30
225.699997
11
282108.000000
21
768330.125000
31
232.380005
12
281921.593750
22
768128.187500
32
237.014664
13
281921.593750
23
768128.187500
33
237.014664
0
3DFACE
8
layer
62
0
10
282108.000000
20
768330.125000
30
232.380005
11
281908.156250
21
768322.125000
31
259.480011
12
281915.937500
22
768128.187500
32
237.808960
13
281915.937500
23
768128.187500
33
237.808960
0
3DFACE
8
layer
62
0
10
282315.843750
20
768138.312500
30
224.130005
11
282116.000000
21
768130.312500
31
225.699997
12
282114.062500
22
768128.187500
32
225.675095
13
282114.062500
23
768128.187500
33
225.675095
0
3DFACE
8
layer
62
0
10
282307.843750
20
768338.125000
30
227.070007
11
282315.843750
21
768138.312500
31
224.130005
12
282326.781250
22
768128.187500
32
224.148956
13
282326.781250
23
768128.187500
33
224.148956
0
3DFACE
8
layer
62
0
10
282707.531250
20
768354.125000
30
224.500000
11
282307.843750
21
768338.125000
31
227.070007
12
282423.531250
22
768128.187500
32
225.687088
13
282423.531250
23
768128.187500
33
225.687088
0
3DFACE
8
layer
62
0
10
283514.875000
20
768186.312500
30
223.399994
11
282707.531250
21
768354.125000
31
224.500000
12
283077.718750
22
768128.187500
32
225.444260
13
283077.718750
23
768128.187500
33
225.444260
0
3DFACE
8
layer
62
0
10
283714.718750
20
768194.312500
30
224.789993
11
283514.875000
21
768186.312500
31
223.399994
12
283517.218750
22
768128.187500
32
234.955795
13
283517.218750
23
768128.187500
33
234.955795
0
3DFACE
8
layer
62
0
10
283914.562500
20
768202.312500
30
236.990005
11
283714.718750
21
768194.312500
31
224.789993
12
283717.375000
22
768128.187500
32
233.642792
13
283717.375000
23
768128.187500
33
233.642792
0
3DFACE
8
layer
62
0
10
283914.562500
20
768202.312500
30
236.990005
11
284067.437500
21
768159.437500
31
247.202240
12
284067.437500
22
768208.437500
32
244.700455
13
284067.437500
23
768208.437500
33
244.700455
0
3DFACE
8
layer
62
0
10
281804.062500
20
770922.187500
30
310.968933
11
281801.843750
21
770922.187500
31
310.950317
12
281804.156250
22
770920.062500
32
310.890015
13
281804.156250
23
770920.062500
33
310.890015
0
3DFACE
8
layer
62
0
10
281626.875000
20
770712.812500
30
309.194672
11
281626.875000
21
770519.500000
31
309.368469
12
281812.156250
22
770720.250000
32
309.890015
13
281812.156250
23
770720.250000
33
309.890015
0
3DFACE
8
layer
62
0
10
281626.875000
20
770912.937500
30
309.133606
11
281626.875000
21
770822.375000
31
307.282806
12
281804.156250
22
770920.062500
32
310.890015
13
281804.156250
23
770920.062500
33
310.890015
0
3DFACE
8
layer
62
0
10
281626.875000
20
770822.375000
30
307.282806
11
281626.875000
21
770728.000000
31
309.272888
12
281804.156250
22
770920.062500
32
310.890015
13
281804.156250
23
770920.062500
33
310.890015
0
3DFACE
8
layer
62
0
10
281626.875000
20
770348.375000
30
305.468201
11
281626.875000
21
770312.500000
31
304.585266
12
281628.312500
22
770312.562500
32
304.619995
13
281628.312500
23
770312.562500
33
304.619995
0
3DFACE
8
layer
62
0
10
281626.875000
20
768743.312500
30
274.409027
11
281626.875000
21
768642.937500
31
269.583862
12
281692.312500
22
768713.812500
32
270.290009
13
281692.312500
23
768713.812500
33
270.290009
0
3DFACE
8
layer
62
0
10
282012.000000
20
770728.250000
30
297.299988
11
281812.156250
21
770720.250000
31
309.890015
12
281820.156250
22
770520.375000
32
306.769989
13
281820.156250
23
770520.375000
33
306.769989
0
3DFACE
8
layer
62
0
10
281626.875000
20
770312.500000
30
304.585266
11
281626.875000
21
770311.000000
31
304.607300
12
281628.312500
22
770312.562500
32
304.619995
13
281628.312500
23
770312.562500
33
304.619995
0
3DFACE
8
layer
62
0
10
281626.875000
20
770112.312500
30
303.415436
11
281626.875000
21
770102.500000
31
303.308685
12
281636.312500
22
770112.687500
32
303.440002
13
281636.312500
23
770112.687500
33
303.440002
0
3DFACE
8
layer
62
0
10
281626.875000
20
769912.187500
30
294.983185
11
281626.875000
21
769894.000000
31
293.822845
12
281644.312500
22
769912.875000
32
294.429993
13
281644.312500
23
769912.875000
33
294.429993
0
3DFACE
8
layer
62
0
10
281626.875000
20
769712.000000
30
286.859833
11
281626.875000
21
769685.437500
31
283.457458
12
281652.312500
22
769713.000000
32
286.730011
13
281652.312500
23
769713.000000
33
286.730011
0
3DFACE
8
layer
62
0
10
281626.875000
20
769511.875000
30
260.917572
11
281626.875000
21
769476.937500
31
262.187286
12
281660.312500
22
769513.187500
32
260.690002
13
281660.312500
23
769513.187500
33
260.690002
0
3DFACE
8
layer
62
0
10
281626.875000
20
769311.687500
30
264.349792
11
281626.875000
21
769268.437500
31
268.317749
12
281668.312500
22
769313.375000
32
263.059998
13
281668.312500
23
769313.375000
33
263.059998
0
3DFACE
8
layer
62
0
10
281626.875000
20
769111.500000
30
286.346375
11
281626.875000
21
769059.937500
31
288.791107
12
281676.312500
22
769113.500000
32
286.000000
13
281676.312500
23
769113.500000
33
286.000000
0
3DFACE
8
layer
62
0
10
281626.875000
20
768911.375000
30
295.682770
11
281626.875000
21
768911.375000
31
295.324921
12
281684.312500
22
768913.687500
32
295.220001
13
281684.312500
23
768913.687500
33
295.220001
0
3DFACE
8
layer
62
0
10
281836.156250
20
770120.687500
30
279.700012
11
281628.312500
21
770312.562500
31
304.619995
12
281636.312500
22
770112.687500
32
303.440002
13
281636.312500
23
770112.687500
33
303.440002
0
3DFACE
8
layer
62
0
10
281892.156250
20
768721.812500
30
270.290009
11
281692.312500
21
768713.812500
31
270.290009
12
281700.312500
22
768514.000000
32
255.360001
13
281700.312500
23
768514.000000
33
255.360001
0
3DFACE
8
layer
62
0
10
282044.000000
20
769928.875000
30
290.519989
11
281836.156250
21
770120.687500
31
279.700012
12
281644.312500
22
769912.875000
32
294.429993
13
281644.312500
23
769912.875000
33
294.429993
0
3DFACE
8
layer
62
0
10
281626.875000
20
768511.062500
30
260.086182
11
281626.875000
21
768434.437500
31
261.638550
12
281700.312500
22
768514.000000
32
255.360001
13
281700.312500
23
768514.000000
33
255.360001
0
3DFACE
8
layer
62
0
10
281852.156250
20
769721.000000
30
269.750000
11
282044.000000
21
769928.875000
31
290.519989
12
281652.312500
22
769713.000000
32
286.730011
13
281652.312500
23
769713.000000
33
286.730011
0
3DFACE
8
layer
62
0
10
281626.875000
20
768310.875000
30
271.605957
11
281626.875000
21
768225.937500
31
278.122925
12
281708.312500
22
768314.125000
32
271.500000
13
281708.312500
23
768314.125000
33
271.500000
0
3DFACE
8
layer
62
0
10
281860.156250
20
769521.187500
30
260.869995
11
281852.156250
21
769721.000000
31
269.750000
12
281660.312500
22
769513.187500
32
260.690002
13
281660.312500
23
769513.187500
33
260.690002
0
3DFACE
8
layer
62
0
10
281868.156250
20
769321.375000
30
257.309998
11
281860.156250
21
769521.187500
31
260.869995
12
281668.312500
22
769313.375000
32
263.059998
13
281668.312500
23
769313.375000
33
263.059998
0
3DFACE
8
layer
62
0
10
281876.156250
20
769121.500000
30
268.059998
11
281868.156250
21
769321.375000
31
257.309998
12
281676.312500
22
769113.500000
32
286.000000
13
281676.312500
23
769113.500000
33
286.000000
0
3DFACE
8
layer
62
0
10
281884.156250
20
768921.687500
30
288.000000
11
281876.156250
21
769121.500000
31
268.059998
12
281684.312500
22
768913.687500
32
295.220001
13
281684.312500
23
768913.687500
33
295.220001
0
3DFACE
8
layer
62
0
10
281892.156250
20
768721.812500
30
270.290009
11
281884.156250
21
768921.687500
31
288.000000
12
281692.312500
22
768713.812500
32
270.290009
13
281692.312500
23
768713.812500
33
270.290009
0
3DFACE
8
layer
62
0
10
281900.156250
20
768522.000000
30
250.369995
11
281892.156250
21
768721.812500
31
270.290009
12
281700.312500
22
768514.000000
32
255.360001
13
281700.312500
23
768514.000000
33
255.360001
0
3DFACE
8
layer
62
0
10
281908.156250
20
768322.125000
30
259.480011
11
281900.156250
21
768522.000000
31
250.369995
12
281708.312500
22
768314.125000
32
271.500000
13
281708.312500
23
768314.125000
33
271.500000
0
3DFACE
8
layer
62
0
10
281729.156250
20
768128.187500
30
269.847076
11
281915.937500
21
768128.187500
31
237.808960
12
281908.156250
22
768322.125000
32
259.480011
13
281908.156250
23
768322.125000
33
259.480011
0
3DFACE
8
layer
62
0
10
281836.156250
20
770120.687500
30
279.700012
11
281636.312500
21
770112.687500
31
303.440002
12
281644.312500
22
769912.875000
32
294.429993
13
281644.312500
23
769912.875000
33
294.429993
0
3DFACE
8
layer
62
0
10
281857.187500
20
770922.187500
30
308.451447
11
281804.062500
21
770922.187500
31
310.968933
12
281804.156250
22
770920.062500
32
310.890015
13
281804.156250
23
770920.062500
33
310.890015
0
3DFACE
8
layer
62
0
10
282044.000000
20
769928.875000
30
290.519989
11
281644.312500
21
769912.875000
31
294.429993
12
281652.312500
22
769713.000000
32
286.730011
13
281652.312500
23
769713.000000
33
286.730011
0
3DFACE
8
layer
62
0
10
281852.156250
20
769721.000000
30
269.750000
11
281652.312500
21
769713.000000
31
286.730011
12
281660.312500
22
769513.187500
32
260.690002
13
281660.312500
23
769513.187500
33
260.690002
0
3DFACE
8
layer
62
0
10
281860.156250
20
769521.187500
30
260.869995
11
281660.312500
21
769513.187500
31
260.690002
12
281668.312500
22
769313.375000
32
263.059998
13
281668.312500
23
769313.375000
33
263.059998
0
3DFACE
8
layer
62
0
10
281868.156250
20
769321.375000
30
257.309998
11
281668.312500
21
769313.375000
31
263.059998
12
281676.312500
22
769113.500000
32
286.000000
13
281676.312500
23
769113.500000
33
286.000000
0
3DFACE
8
layer
62
0
10
282219.843750
20
770536.375000
30
299.399994
11
282012.000000
21
770728.250000
31
297.299988
12
281820.156250
22
770520.375000
32
306.769989
13
281820.156250
23
770520.375000
33
306.769989
0
3DFACE
8
layer
62
0
10
281876.156250
20
769121.500000
30
268.059998
11
281676.312500
21
769113.500000
31
286.000000
12
281684.312500
22
768913.687500
32
295.220001
13
281684.312500
23
768913.687500
33
295.220001
0
3DFACE
8
layer
62
0
10
282028.000000
20
770328.562500
30
289.950012
11
282219.843750
21
770536.375000
31
299.399994
12
281628.312500
22
770312.562500
32
304.619995
13
281628.312500
23
770312.562500
33
304.619995
0
3DFACE
8
layer
62
0
10
281884.156250
20
768921.687500
30
288.000000
11
281684.312500
21
768913.687500
31
295.220001
12
281692.312500
22
768713.812500
32
270.290009
13
281692.312500
23
768713.812500
33
270.290009
0
3DFACE
8
layer
62
0
10
282036.000000
20
770128.687500
30
285.850006
11
282028.000000
21
770328.562500
31
289.950012
12
281836.156250
22
770120.687500
32
279.700012
13
281836.156250
23
770120.687500
33
279.700012
0
3DFACE
8
layer
62
0
10
282092.000000
20
768729.812500
30
263.109985
11
281892.156250
21
768721.812500
31
270.290009
12
281900.156250
22
768522.000000
32
250.369995
13
281900.156250
23
768522.000000
33
250.369995
0
3DFACE
8
layer
62
0
10
281900.156250
20
768522.000000
30
250.369995
11
281700.312500
21
768514.000000
31
255.360001
12
281708.312500
22
768314.125000
32
271.500000
13
281708.312500
23
768314.125000
33
271.500000
0
3DFACE
8
layer
62
0
10
282052.000000
20
769729.000000
30
272.670013
11
282044.000000
21
769928.875000
31
290.519989
12
281852.156250
22
769721.000000
32
269.750000
13
281852.156250
23
769721.000000
33
269.750000
0
3DFACE
8
layer
62
0
10
282060.000000
20
769529.187500
30
265.440002
11
282052.000000
21
769729.000000
31
272.670013
12
281860.156250
22
769521.187500
32
260.869995
13
281860.156250
23
769521.187500
33
260.869995
0
3DFACE
8
layer
62
0
10
282068.000000
20
769329.375000
30
254.559998
11
282060.000000
21
769529.187500
31
265.440002
12
281868.156250
22
769321.375000
32
257.309998
13
281868.156250
23
769321.375000
33
257.309998
0
3DFACE
8
layer
62
0
10
282076.000000
20
769129.500000
30
255.089996
11
282068.000000
21
769329.375000
31
254.559998
12
281876.156250
22
769121.500000
32
268.059998
13
281876.156250
23
769121.500000
33
268.059998
0
3DFACE
8
layer
62
0
10
282084.000000
20
768929.687500
30
259.500000
11
282076.000000
21
769129.500000
31
255.089996
12
281884.156250
22
768921.687500
32
288.000000
13
281884.156250
23
768921.687500
33
288.000000
0
3DFACE
8
layer
62
0
10
282092.000000
20
768729.812500
30
263.109985
11
282084.000000
21
768929.687500
31
259.500000
12
281892.156250
22
768721.812500
32
270.290009
13
281892.156250
23
768721.812500
33
270.290009
0
3DFACE
8
layer
62
0
10
282100.000000
20
768530.000000
30
239.720001
11
282092.000000
21
768729.812500
31
263.109985
12
281900.156250
22
768522.000000
32
250.369995
13
281900.156250
23
768522.000000
33
250.369995
0
3DFACE
8
layer
62
0
10
282108.000000
20
768330.125000
30
232.380005
11
282100.000000
21
768530.000000
31
239.720001
12
281908.156250
22
768322.125000
32
259.480011
13
281908.156250
23
768322.125000
33
259.480011
0
3DFACE
8
layer
62
0
10
282219.843750
20
770536.375000
30
299.399994
11
281820.156250
21
770520.375000
31
306.769989
12
281628.312500
22
770312.562500
32
304.619995
13
281628.312500
23
770312.562500
33
304.619995
0
3DFACE
8
layer
62
0
10
282028.000000
20
770328.562500
30
289.950012
11
281628.312500
21
770312.562500
31
304.619995
12
281836.156250
22
770120.687500
32
279.700012
13
281836.156250
23
770120.687500
33
279.700012
0
3DFACE
8
layer
62
0
10
282036.000000
20
770128.687500
30
285.850006
11
281836.156250
21
770120.687500
31
279.700012
12
282044.000000
22
769928.875000
32
290.519989
13
282044.000000
23
769928.875000
33
290.519989
0
3DFACE
8
layer
62
0
10
282052.000000
20
769729.000000
30
272.670013
11
281852.156250
21
769721.000000
31
269.750000
12
281860.156250
22
769521.187500
32
260.869995
13
281860.156250
23
769521.187500
33
260.869995
0
3DFACE
8
layer
62
0
10
282191.031250
20
770922.187500
30
306.230957
11
282004.218750
21
770922.187500
31
301.570587
12
282012.000000
22
770728.250000
32
297.299988
13
282012.000000
23
770728.250000
33
297.299988
0
3DFACE
8
layer
62
0
10
282060.000000
20
769529.187500
30
265.440002
11
281860.156250
21
769521.187500
31
260.869995
12
281868.156250
22
769321.375000
32
257.309998
13
281868.156250
23
769321.375000
33
257.309998
0
3DFACE
8
layer
62
0
10
282068.000000
20
769329.375000
30
254.559998
11
281868.156250
21
769321.375000
31
257.309998
12
281876.156250
22
769121.500000
32
268.059998
13
281876.156250
23
769121.500000
33
268.059998
0
3DFACE
8
layer
62
0
10
282076.000000
20
769129.500000
30
255.089996
11
281876.156250
21
769121.500000
31
268.059998
12
281884.156250
22
768921.687500
32
288.000000
13
281884.156250
23
768921.687500
33
288.000000
0
3DFACE
8
layer
62
0
10
282227.843750
20
770336.562500
30
302.260010
11
282219.843750
21
770536.375000
31
299.399994
12
282028.000000
22
770328.562500
32
289.950012
13
282028.000000
23
770328.562500
33
289.950012
0
3DFACE
8
layer
62
0
10
282084.000000
20
768929.687500
30
259.500000
11
281884.156250
21
768921.687500
31
288.000000
12
281892.156250
22
768721.812500
32
270.290009
13
281892.156250
23
768721.812500
33
270.290009
0
3DFACE
8
layer
62
0
10
282235.843750
20
770136.687500
30
297.450012
11
282227.843750
21
770336.562500
31
302.260010
12
282036.000000
22
770128.687500
32
285.850006
13
282036.000000
23
770128.687500
33
285.850006
0
3DFACE
8
layer
62
0
10
282299.843750
20
768538.000000
30
232.740005
11
282100.000000
21
768530.000000
31
239.720001
12
282108.000000
22
768330.125000
32
232.380005
13
282108.000000
23
768330.125000
33
232.380005
0
3DFACE
8
layer
62
0
10
282100.000000
20
768530.000000
30
239.720001
11
281900.156250
21
768522.000000
31
250.369995
12
281908.156250
22
768322.125000
32
259.480011
13
281908.156250
23
768322.125000
33
259.480011
0
3DFACE
8
layer
62
0
10
282251.843750
20
769737.000000
30
290.640015
11
282044.000000
21
769928.875000
31
290.519989
12
282052.000000
22
769729.000000
32
272.670013
13
282052.000000
23
769729.000000
33
272.670013
0
3DFACE
8
layer
62
0
10
282259.843750
20
769537.187500
30
281.679993
11
282251.843750
21
769737.000000
31
290.640015
12
282060.000000
22
769529.187500
32
265.440002
13
282060.000000
23
769529.187500
33
265.440002
0
3DFACE
8
layer
62
0
10
282063.468750
20
768128.187500
30
228.710587
11
282114.062500
21
768128.187500
31
225.675095
12
282116.000000
22
768130.312500
32
225.699997
13
282116.000000
23
768130.312500
33
225.699997
0
3DFACE
8
layer
62
0
10
282267.843750
20
769337.375000
30
261.850006
11
282259.843750
21
769537.187500
31
281.679993
12
282068.000000
22
769329.375000
32
254.559998
13
282068.000000
23
769329.375000
33
254.559998
0
3DFACE
8
layer
62
0
10
282275.843750
20
769137.500000
30
242.440002
11
282267.843750
21
769337.375000
31
261.850006
12
282076.000000
22
769129.500000
32
255.089996
13
282076.000000
23
769129.500000
33
255.089996
0
3DFACE
8
layer
62
0
10
282291.843750
20
768737.812500
30
250.410004
11
282275.843750
21
769137.500000
31
242.440002
12
282084.000000
22
768929.687500
32
259.500000
13
282084.000000
23
768929.687500
33
259.500000
0
3DFACE
8
layer
62
0
10
282299.843750
20
768538.000000
30
232.740005
11
282291.843750
21
768737.812500
31
250.410004
12
282100.000000
22
768530.000000
32
239.720001
13
282100.000000
23
768530.000000
33
239.720001
0
3DFACE
8
layer
62
0
10
282307.843750
20
768338.125000
30
227.070007
11
282299.843750
21
768538.000000
31
232.740005
12
282108.000000
22
768330.125000
32
232.380005
13
282108.000000
23
768330.125000
33
232.380005
0
3DFACE
8
layer
62
0
10
282315.843750
20
768138.312500
30
224.130005
11
282307.843750
21
768338.125000
31
227.070007
12
282116.000000
22
768130.312500
32
225.699997
13
282116.000000
23
768130.312500
33
225.699997
0
3DFACE
8
layer
62
0
10
282611.500000
20
770752.250000
30
309.869995
11
282411.656250
21
770744.250000
31
310.730011
12
282419.656250
22
770544.375000
32
308.320007
13
282419.656250
23
770544.375000
33
308.320007
0
3DFACE
8
layer
62
0
10
282227.843750
20
770336.562500
30
302.260010
11
282028.000000
21
770328.562500
31
289.950012
12
282036.000000
22
770128.687500
32
285.850006
13
282036.000000
23
770128.687500
33
285.850006
0
3DFACE
8
layer
62
0
10
282235.843750
20
770136.687500
30
297.450012
11
282036.000000
21
770128.687500
31
285.850006
12
282044.000000
22
769928.875000
32
290.519989
13
282044.000000
23
769928.875000
33
290.519989
0
3DFACE
8
layer
62
0
10
282251.843750
20
769737.000000
30
290.640015
11
282052.000000
21
769729.000000
31
272.670013
12
282060.000000
22
769529.187500
32
265.440002
13
282060.000000
23
769529.187500
33
265.440002
0
3DFACE
8
layer
62
0
10
282259.843750
20
769537.187500
30
281.679993
11
282060.000000
21
769529.187500
31
265.440002
12
282068.000000
22
769329.375000
32
254.559998
13
282068.000000
23
769329.375000
33
254.559998
0
3DFACE
8
layer
62
0
10
282404.531250
20
770922.187500
30
311.326630
11
282218.875000
21
770922.187500
31
307.149261
12
282411.656250
22
770744.250000
32
310.730011
13
282411.656250
23
770744.250000
33
310.730011
0
3DFACE
8
layer
62
0
10
282267.843750
20
769337.375000
30
261.850006
11
282068.000000
21
769329.375000
31
254.559998
12
282076.000000
22
769129.500000
32
255.089996
13
282076.000000
23
769129.500000
33
255.089996
0
3DFACE
8
layer
62
0
10
282419.656250
20
770544.375000
30
308.320007
11
282411.656250
21
770744.250000
31
310.730011
12
282219.843750
22
770536.375000
32
299.399994
13
282219.843750
23
770536.375000
33
299.399994
0
3DFACE
8
layer
62
0
10
282275.843750
20
769137.500000
30
242.440002
11
282076.000000
21
769129.500000
31
255.089996
12
282084.000000
22
768929.687500
32
259.500000
13
282084.000000
23
768929.687500
33
259.500000
0
3DFACE
8
layer
62
0
10
282427.656250
20
770344.562500
30
304.049988
11
282419.656250
21
770544.375000
31
308.320007
12
282227.843750
22
770336.562500
32
302.260010
13
282227.843750
23
770336.562500
33
302.260010
0
3DFACE
8
layer
62
0
10
282291.843750
20
768737.812500
30
250.410004
11
282084.000000
21
768929.687500
31
259.500000
12
282092.000000
22
768729.812500
32
263.109985
13
282092.000000
23
768729.812500
33
263.109985
0
3DFACE
8
layer
62
0
10
282291.843750
20
768737.812500
30
250.410004
11
282092.000000
21
768729.812500
31
263.109985
12
282100.000000
22
768530.000000
32
239.720001
13
282100.000000
23
768530.000000
33
239.720001
0
3DFACE
8
layer
62
0
10
282443.656250
20
769944.875000
30
288.679993
11
282235.843750
21
770136.687500
31
297.450012
12
282044.000000
22
769928.875000
32
290.519989
13
282044.000000
23
769928.875000
33
290.519989
0
3DFACE
8
layer
62
0
10
282451.687500
20
769745.000000
30
289.690002
11
282443.656250
21
769944.875000
31
288.679993
12
282251.843750
22
769737.000000
32
290.640015
13
282251.843750
23
769737.000000
33
290.640015
0
3DFACE
8
layer
62
0
10
282307.843750
20
768338.125000
30
227.070007
11
282108.000000
21
768330.125000
31
232.380005
12
282116.000000
22
768130.312500
32
225.699997
13
282116.000000
23
768130.312500
33
225.699997
0
3DFACE
8
layer
62
0
10
282459.687500
20
769545.187500
30
284.850006
11
282451.687500
21
769745.000000
31
289.690002
12
282259.843750
22
769537.187500
32
281.679993
13
282259.843750
23
769537.187500
33
281.679993
0
3DFACE
8
layer
62
0
10
282467.687500
20
769345.375000
30
276.339996
11
282459.687500
21
769545.187500
31
284.850006
12
282267.843750
22
769337.375000
32
261.850006
13
282267.843750
23
769337.375000
33
261.850006
0
3DFACE
8
layer
62
0
10
282483.687500
20
768945.687500
30
236.880005
11
282275.843750
21
769137.500000
31
242.440002
12
282291.843750
22
768737.812500
32
250.410004
13
282291.843750
23
768737.812500
33
250.410004
0
3DFACE
8
layer
62
0
10
282491.687500
20
768745.812500
30
231.440002
11
282483.687500
21
768945.687500
31
236.880005
12
282291.843750
22
768737.812500
32
250.410004
13
282291.843750
23
768737.812500
33
250.410004
0
3DFACE
8
layer
62
0
10
282307.843750
20
768338.125000
30
227.070007
11
282491.687500
21
768745.812500
31
231.440002
12
282299.843750
22
768538.000000
32
232.740005
13
282299.843750
23
768538.000000
33
232.740005
0
3DFACE
8
layer
62
0
10
282419.656250
20
770544.375000
30
308.320007
11
282219.843750
21
770536.375000
31
299.399994
12
282227.843750
22
770336.562500
32
302.260010
13
282227.843750
23
770336.562500
33
302.260010
0
3DFACE
8
layer
62
0
10
282811.343750
20
770760.250000
30
303.239990
11
282611.500000
21
770752.250000
31
309.869995
12
282619.500000
22
770552.375000
32
309.220001
13
282619.500000
23
770552.375000
33
309.220001
0
3DFACE
8
layer
62
0
10
282427.656250
20
770344.562500
30
304.049988
11
282227.843750
21
770336.562500
31
302.260010
12
282235.843750
22
770136.687500
32
297.450012
13
282235.843750
23
770136.687500
33
297.450012
0
3DFACE
8
layer
62
0
10
282443.656250
20
769944.875000
30
288.679993
11
282044.000000
21
769928.875000
31
290.519989
12
282251.843750
22
769737.000000
32
290.640015
13
282251.843750
23
769737.000000
33
290.640015
0
3DFACE
8
layer
62
0
10
282451.687500
20
769745.000000
30
289.690002
11
282251.843750
21
769737.000000
31
290.640015
12
282259.843750
22
769537.187500
32
281.679993
13
282259.843750
23
769537.187500
33
281.679993
0
3DFACE
8
layer
62
0
10
282575.937500
20
770922.187500
30
306.697144
11
282404.531250
21
770922.187500
31
311.326630
12
282411.656250
22
770744.250000
32
310.730011
13
282411.656250
23
770744.250000
33
310.730011
0
3DFACE
8
layer
62
0
10
282459.687500
20
769545.187500
30
284.850006
11
282259.843750
21
769537.187500
31
281.679993
12
282267.843750
22
769337.375000
32
261.850006
13
282267.843750
23
769337.375000
33
261.850006
0
3DFACE
8
layer
62
0
10
282467.687500
20
769345.375000
30
276.339996
11
282267.843750
21
769337.375000
31
261.850006
12
282275.843750
22
769137.500000
32
242.440002
13
282275.843750
23
769137.500000
33
242.440002
0
3DFACE
8
layer
62
0
10
282619.500000
20
770552.375000
30
309.220001
11
282611.500000
21
770752.250000
31
309.869995
12
282419.656250
22
770544.375000
32
308.320007
13
282419.656250
23
770544.375000
33
308.320007
0
3DFACE
8
layer
62
0
10
282627.500000
20
770352.562500
30
300.369995
11
282619.500000
21
770552.375000
31
309.220001
12
282427.656250
22
770344.562500
32
304.049988
13
282427.656250
23
770344.562500
33
304.049988
0
3DFACE
8
layer
62
0
10
282635.500000
20
770152.687500
30
287.309998
11
282627.500000
21
770352.562500
31
300.369995
12
282235.843750
22
770136.687500
32
297.450012
13
282235.843750
23
770136.687500
33
297.450012
0
3DFACE
8
layer
62
0
10
282491.687500
20
768745.812500
30
231.440002
11
282291.843750
21
768737.812500
31
250.410004
12
282299.843750
22
768538.000000
32
232.740005
13
282299.843750
23
768538.000000
33
232.740005
0
3DFACE
8
layer
62
0
10
282643.500000
20
769952.875000
30
268.260010
11
282635.500000
21
770152.687500
31
287.309998
12
282443.656250
22
769944.875000
32
288.679993
13
282443.656250
23
769944.875000
33
288.679993
0
3DFACE
8
layer
62
0
10
282651.500000
20
769753.000000
30
272.799988
11
282643.500000
21
769952.875000
31
268.260010
12
282451.687500
22
769745.000000
32
289.690002
13
282451.687500
23
769745.000000
33
289.690002
0
3DFACE
8
layer
62
0
10
282659.500000
20
769553.187500
30
283.579987
11
282651.500000
21
769753.000000
31
272.799988
12
282459.687500
22
769545.187500
32
284.850006
13
282459.687500
23
769545.187500
33
284.850006
0
3DFACE
8
layer
62
0
10
282297.500000
20
768128.187500
30
224.088333
11
282326.781250
21
768128.187500
31
224.148956
12
282315.843750
22
768138.312500
32
224.130005
13
282315.843750
23
768138.312500
33
224.130005
0
3DFACE
8
layer
62
0
10
282667.500000
20
769353.375000
30
282.959991
11
282659.500000
21
769553.187500
31
283.579987
12
282467.687500
22
769345.375000
32
276.339996
13
282467.687500
23
769345.375000
33
276.339996
0
3DFACE
8
layer
62
0
10
282483.687500
20
768945.687500
30
236.880005
11
282667.500000
21
769353.375000
31
282.959991
12
282275.843750
22
769137.500000
32
242.440002
13
282275.843750
23
769137.500000
33
242.440002
0
3DFACE
8
layer
62
0
10
282691.531250
20
768753.812500
30
232.309998
11
282483.687500
21
768945.687500
31
236.880005
12
282491.687500
22
768745.812500
32
231.440002
13
282491.687500
23
768745.812500
33
231.440002
0
3DFACE
8
layer
62
0
10
282707.531250
20
768354.125000
30
224.500000
11
282691.531250
21
768753.812500
31
232.309998
12
282307.843750
22
768338.125000
32
227.070007
13
282307.843750
23
768338.125000
33
227.070007
0
3DFACE
8
layer
62
0
10
282605.625000
20
768128.187500
30
224.494461
11
282716.562500
21
768128.187500
31
222.674026
12
282707.531250
22
768354.125000
32
224.500000
13
282707.531250
23
768354.125000
33
224.500000
0
3DFACE
8
layer
62
0
10
282619.500000
20
770552.375000
30
309.220001
11
282419.656250
21
770544.375000
31
308.320007
12
282427.656250
22
770344.562500
32
304.049988
13
282427.656250
23
770344.562500
33
304.049988
0
3DFACE
8
layer
62
0
10
283011.187500
20
770768.250000
30
296.390015
11
282811.343750
21
770760.250000
31
303.239990
12
282819.343750
22
770560.375000
32
304.679993
13
282819.343750
23
770560.375000
33
304.679993
0
3DFACE
8
layer
62
0
10
282627.500000
20
770352.562500
30
300.369995
11
282427.656250
21
770344.562500
31
304.049988
12
282235.843750
22
770136.687500
32
297.450012
13
282235.843750
23
770136.687500
33
297.450012
0
3DFACE
8
layer
62
0
10
282635.500000
20
770152.687500
30
287.309998
11
282235.843750
21
770136.687500
31
297.450012
12
282443.656250
22
769944.875000
32
288.679993
13
282443.656250
23
769944.875000
33
288.679993
0
3DFACE
8
layer
62
0
10
282643.500000
20
769952.875000
30
268.260010
11
282443.656250
21
769944.875000
31
288.679993
12
282451.687500
22
769745.000000
32
289.690002
13
282451.687500
23
769745.000000
33
289.690002
0
3DFACE
8
layer
62
0
10
282651.500000
20
769753.000000
30
272.799988
11
282451.687500
21
769745.000000
31
289.690002
12
282459.687500
22
769545.187500
32
284.850006
13
282459.687500
23
769545.187500
33
284.850006
0
3DFACE
8
layer
62
0
10
282768.375000
20
770922.187500
30
300.367889
11
282604.687500
21
770922.187500
31
306.595673
12
282611.500000
22
770752.250000
32
309.869995
13
282611.500000
23
770752.250000
33
309.869995
0
3DFACE
8
layer
62
0
10
282659.500000
20
769553.187500
30
283.579987
11
282459.687500
21
769545.187500
31
284.850006
12
282467.687500
22
769345.375000
32
276.339996
13
282467.687500
23
769345.375000
33
276.339996
0
3DFACE
8
layer
62
0
10
282667.500000
20
769353.375000
30
282.959991
11
282467.687500
21
769345.375000
31
276.339996
12
282275.843750
22
769137.500000
32
242.440002
13
282275.843750
23
769137.500000
33
242.440002
0
3DFACE
8
layer
62
0
10
282819.343750
20
770560.375000
30
304.679993
11
282811.343750
21
770760.250000
31
303.239990
12
282619.500000
22
770552.375000
32
309.220001
13
282619.500000
23
770552.375000
33
309.220001
0
3DFACE
8
layer
62
0
10
282827.343750
20
770360.562500
30
294.109985
11
282819.343750
21
770560.375000
31
304.679993
12
282627.500000
22
770352.562500
32
300.369995
13
282627.500000
23
770352.562500
33
300.369995
0
3DFACE
8
layer
62
0
10
282835.343750
20
770160.687500
30
261.899994
11
282827.343750
21
770360.562500
31
294.109985
12
282635.500000
22
770152.687500
32
287.309998
13
282635.500000
23
770152.687500
33
287.309998
0
3DFACE
8
layer
62
0
10
282691.531250
20
768753.812500
30
232.309998
11
282491.687500
21
768745.812500
31
231.440002
12
282307.843750
22
768338.125000
32
227.070007
13
282307.843750
23
768338.125000
33
227.070007
0
3DFACE
8
layer
62
0
10
282843.343750
20
769960.875000
30
239.600006
11
282835.343750
21
770160.687500
31
261.899994
12
282643.500000
22
769952.875000
32
268.260010
13
282643.500000
23
769952.875000
33
268.260010
0
3DFACE
8
layer
62
0
10
282859.343750
20
769561.187500
30
262.700012
11
282843.343750
21
769960.875000
31
239.600006
12
282651.500000
22
769753.000000
32
272.799988
13
282651.500000
23
769753.000000
33
272.799988
0
3DFACE
8
layer
62
0
10
282867.343750
20
769361.375000
30
235.850006
11
282859.343750
21
769561.187500
31
262.700012
12
282667.500000
22
769353.375000
32
282.959991
13
282667.500000
23
769353.375000
33
282.959991
0
3DFACE
8
layer
62
0
10
283275.031250
20
769177.500000
30
234.869995
11
282867.343750
21
769361.375000
31
235.850006
12
282483.687500
22
768945.687500
32
236.880005
13
282483.687500
23
768945.687500
33
236.880005
0
3DFACE
8
layer
62
0
10
282883.343750
20
768961.687500
30
225.589996
11
283275.031250
21
769177.500000
31
234.869995
12
282483.687500
22
768945.687500
32
236.880005
13
282483.687500
23
768945.687500
33
236.880005
0
3DFACE
8
layer
62
0
10
282891.343750
20
768761.812500
30
226.410004
11
282883.343750
21
768961.687500
31
225.589996
12
282691.531250
22
768753.812500
32
232.309998
13
282691.531250
23
768753.812500
33
232.309998
0
3DFACE
8
layer
62
0
10
282819.343750
20
770560.375000
30
304.679993
11
282619.500000
21
770552.375000
31
309.220001
12
282627.500000
22
770352.562500
32
300.369995
13
282627.500000
23
770352.562500
33
300.369995
0
3DFACE
8
layer
62
0
10
283211.031250
20
770776.250000
30
289.489990
11
283011.187500
21
770768.250000
31
296.390015
12
283019.187500
22
770568.375000
32
296.630005
13
283019.187500
23
770568.375000
33
296.630005
0
3DFACE
8
layer
62
0
10
282827.343750
20
770360.562500
30
294.109985
11
282627.500000
21
770352.562500
31
300.369995
12
282635.500000
22
770152.687500
32
287.309998
13
282635.500000
23
770152.687500
33
287.309998
0
3DFACE
8
layer
62
0
10
282835.343750
20
770160.687500
30
261.899994
11
282635.500000
21
770152.687500
31
287.309998
12
282643.500000
22
769952.875000
32
268.260010
13
282643.500000
23
769952.875000
33
268.260010
0
3DFACE
8
layer
62
0
10
282843.343750
20
769960.875000
30
239.600006
11
282643.500000
21
769952.875000
31
268.260010
12
282651.500000
22
769753.000000
32
272.799988
13
282651.500000
23
769753.000000
33
272.799988
0
3DFACE
8
layer
62
0
10
282859.343750
20
769561.187500
30
262.700012
11
282651.500000
21
769753.000000
31
272.799988
12
282659.500000
22
769553.187500
32
283.579987
13
282659.500000
23
769553.187500
33
283.579987
0
3DFACE
8
layer
62
0
10
282960.843750
20
770922.187500
30
296.842438
11
282804.875000
21
770922.187500
31
299.195892
12
282811.343750
22
770760.250000
32
303.239990
13
282811.343750
23
770760.250000
33
303.239990
0
3DFACE
8
layer
62
0
10
282859.343750
20
769561.187500
30
262.700012
11
282659.500000
21
769553.187500
31
283.579987
12
282667.500000
22
769353.375000
32
282.959991
13
282667.500000
23
769353.375000
33
282.959991
0
3DFACE
8
layer
62
0
10
282867.343750
20
769361.375000
30
235.850006
11
282667.500000
21
769353.375000
31
282.959991
12
282483.687500
22
768945.687500
32
236.880005
13
282483.687500
23
768945.687500
33
236.880005
0
3DFACE
8
layer
62
0
10
283019.187500
20
770568.375000
30
296.630005
11
283011.187500
21
770768.250000
31
296.390015
12
282819.343750
22
770560.375000
32
304.679993
13
282819.343750
23
770560.375000
33
304.679993
0
3DFACE
8
layer
62
0
10
283027.187500
20
770368.562500
30
291.119995
11
283019.187500
21
770568.375000
31
296.630005
12
282827.343750
22
770360.562500
32
294.109985
13
282827.343750
23
770360.562500
33
294.109985
0
3DFACE
8
layer
62
0
10
282883.343750
20
768961.687500
30
225.589996
11
282483.687500
21
768945.687500
31
236.880005
12
282691.531250
22
768753.812500
32
232.309998
13
282691.531250
23
768753.812500
33
232.309998
0
3DFACE
8
layer
62
0
10
283035.187500
20
770168.687500
30
250.339996
11
283027.187500
21
770368.562500
31
291.119995
12
282835.343750
22
770160.687500
32
261.899994
13
282835.343750
23
770160.687500
33
261.899994
0
3DFACE
8
layer
62
0
10
282891.343750
20
768761.812500
30
226.410004
11
282691.531250
21
768753.812500
31
232.309998
12
282707.531250
22
768354.125000
32
224.500000
13
282707.531250
23
768354.125000
33
224.500000
0
3DFACE
8
layer
62
0
10
283043.187500
20
769968.875000
30
238.919998
11
283035.187500
21
770168.687500
31
250.339996
12
282843.343750
22
769960.875000
32
239.600006
13
282843.343750
23
769960.875000
33
239.600006
0
3DFACE
8
layer
62
0
10
283051.187500
20
769769.000000
30
242.309998
11
283043.187500
21
769968.875000
31
238.919998
12
282859.343750
22
769561.187500
32
262.700012
13
282859.343750
23
769561.187500
33
262.700012
0
3DFACE
8
layer
62
0
10
282867.343750
20
769361.375000
30
235.850006
11
283051.187500
21
769769.000000
31
242.309998
12
282859.343750
22
769561.187500
32
262.700012
13
282859.343750
23
769561.187500
33
262.700012
0
3DFACE
8
layer
62
0
10
282716.562500
20
768128.187500
30
222.674026
11
282793.031250
21
768128.187500
31
223.885010
12
282707.531250
22
768354.125000
32
224.500000
13
282707.531250
23
768354.125000
33
224.500000
0
3DFACE
8
layer
62
0
10
283083.187500
20
768969.687500
30
233.389999
11
283275.031250
21
769177.500000
31
234.869995
12
282883.343750
22
768961.687500
32
225.589996
13
282883.343750
23
768961.687500
33
225.589996
0
3DFACE
8
layer
62
0
10
283091.187500
20
768769.812500
30
225.509995
11
283083.187500
21
768969.687500
31
233.389999
12
282891.343750
22
768761.812500
32
226.410004
13
282891.343750
23
768761.812500
33
226.410004
0
3DFACE
8
layer
62
0
10
283019.187500
20
770568.375000
30
296.630005
11
282819.343750
21
770560.375000
31
304.679993
12
282827.343750
22
770360.562500
32
294.109985
13
282827.343750
23
770360.562500
33
294.109985
0
3DFACE
8
layer
62
0
10
283027.187500
20
770368.562500
30
291.119995
11
282827.343750
21
770360.562500
31
294.109985
12
282835.343750
22
770160.687500
32
261.899994
13
282835.343750
23
770160.687500
33
261.899994
0
3DFACE
8
layer
62
0
10
283035.187500
20
770168.687500
30
250.339996
11
282835.343750
21
770160.687500
31
261.899994
12
282843.343750
22
769960.875000
32
239.600006
13
282843.343750
23
769960.875000
33
239.600006
0
3DFACE
8
layer
62
0
10
283043.187500
20
769968.875000
30
238.919998
11
282843.343750
21
769960.875000
31
239.600006
12
282859.343750
22
769561.187500
32
262.700012
13
282859.343750
23
769561.187500
33
262.700012
0
3DFACE
8
layer
62
0
10
283080.625000
20
770922.187500
30
298.319763
11
283005.031250
21
770922.187500
31
295.342255
12
283011.187500
22
770768.250000
32
296.390015
13
283011.187500
23
770768.250000
33
296.390015
0
3DFACE
8
layer
62
0
10
283418.875000
20
770584.375000
30
289.880005
11
283211.031250
21
770776.250000
31
289.489990
12
283019.187500
22
770568.375000
32
296.630005
13
283019.187500
23
770568.375000
33
296.630005
0
3DFACE
8
layer
62
0
10
283426.875000
20
770384.562500
30
289.859985
11
283027.187500
21
770368.562500
31
291.119995
12
283035.187500
22
770168.687500
32
250.339996
13
283035.187500
23
770168.687500
33
250.339996
0
3DFACE
8
layer
62
0
10
283083.187500
20
768969.687500
30
233.389999
11
282883.343750
21
768961.687500
31
225.589996
12
282891.343750
22
768761.812500
32
226.410004
13
282891.343750
23
768761.812500
33
226.410004
0
3DFACE
8
layer
62
0
10
283091.187500
20
768769.812500
30
225.509995
11
282891.343750
21
768761.812500
31
226.410004
12
282707.531250
22
768354.125000
32
224.500000
13
282707.531250
23
768354.125000
33
224.500000
0
3DFACE
8
layer
62
0
10
283243.031250
20
769976.875000
30
241.250000
11
283043.187500
21
769968.875000
31
238.919998
12
283051.187500
22
769769.000000
32
242.309998
13
283051.187500
23
769769.000000
33
242.309998
0
3DFACE
8
layer
62
0
10
283251.031250
20
769777.062500
30
232.580002
11
283051.187500
21
769769.000000
31
242.309998
12
282867.343750
22
769361.375000
32
235.850006
13
282867.343750
23
769361.375000
33
235.850006
0
3DFACE
8
layer
62
0
10
283267.031250
20
769377.375000
30
235.679993
11
282867.343750
21
769361.375000
31
235.850006
12
283275.031250
22
769177.500000
32
234.869995
13
283275.031250
23
769177.500000
33
234.869995
0
3DFACE
8
layer
62
0
10
282793.031250
20
768128.187500
30
223.885010
11
282952.312500
21
768128.187500
31
223.045425
12
282707.531250
22
768354.125000
32
224.500000
13
282707.531250
23
768354.125000
33
224.500000
0
3DFACE
8
layer
62
0
10
283283.031250
20
768977.687500
30
226.000000
11
283275.031250
21
769177.500000
31
234.869995
12
283083.187500
22
768969.687500
32
233.389999
13
283083.187500
23
768969.687500
33
233.389999
0
3DFACE
8
layer
62
0
10
283506.875000
20
768386.125000
30
225.330002
11
283482.875000
21
768985.687500
31
226.330002
12
282707.531250
22
768354.125000
32
224.500000
13
282707.531250
23
768354.125000
33
224.500000
0
3DFACE
8
layer
62
0
10
283418.875000
20
770584.375000
30
289.880005
11
283019.187500
21
770568.375000
31
296.630005
12
283027.187500
22
770368.562500
32
291.119995
13
283027.187500
23
770368.562500
33
291.119995
0
3DFACE
8
layer
62
0
10
283426.875000
20
770384.562500
30
289.859985
11
283418.875000
21
770584.375000
31
289.880005
12
283027.187500
22
770368.562500
32
291.119995
13
283027.187500
23
770368.562500
33
291.119995
0
3DFACE
8
layer
62
0
10
283243.031250
20
769976.875000
30
241.250000
11
283035.187500
21
770168.687500
31
250.339996
12
283043.187500
22
769968.875000
32
238.919998
13
283043.187500
23
769968.875000
33
238.919998
0
3DFACE
8
layer
62
0
10
283251.031250
20
769777.062500
30
232.580002
11
283243.031250
21
769976.875000
31
241.250000
12
283051.187500
22
769769.000000
32
242.309998
13
283051.187500
23
769769.000000
33
242.309998
0
3DFACE
8
layer
62
0
10
283345.750000
20
770922.187500
30
298.106598
11
283205.187500
21
770922.187500
31
293.875854
12
283211.031250
22
770776.250000
32
289.489990
13
283211.031250
23
770776.250000
33
289.489990
0
3DFACE
8
layer
62
0
10
283259.031250
20
769577.187500
30
226.410004
11
283251.031250
21
769777.062500
31
232.580002
12
282867.343750
22
769361.375000
32
235.850006
13
282867.343750
23
769361.375000
33
235.850006
0
3DFACE
8
layer
62
0
10
283410.875000
20
770784.250000
30
291.890015
11
283211.031250
21
770776.250000
31
289.489990
12
283418.875000
22
770584.375000
32
289.880005
13
283418.875000
23
770584.375000
33
289.880005
0
3DFACE
8
layer
62
0
10
283267.031250
20
769377.375000
30
235.679993
11
283259.031250
21
769577.187500
31
226.410004
12
282867.343750
22
769361.375000
32
235.850006
13
282867.343750
23
769361.375000
33
235.850006
0
3DFACE
8
layer
62
0
10
283283.031250
20
768977.687500
30
226.000000
11
283083.187500
21
768969.687500
31
233.389999
12
283091.187500
22
768769.812500
32
225.509995
13
283091.187500
23
768769.812500
33
225.509995
0
3DFACE
8
layer
62
0
10
283434.875000
20
770184.687500
30
277.369995
11
283035.187500
21
770168.687500
31
250.339996
12
283243.031250
22
769976.875000
32
241.250000
13
283243.031250
23
769976.875000
33
241.250000
0
3DFACE
8
layer
62
0
10
283442.875000
20
769984.875000
30
274.070007
11
283243.031250
21
769976.875000
31
241.250000
12
283251.031250
22
769777.062500
32
232.580002
13
283251.031250
23
769777.062500
33
232.580002
0
3DFACE
8
layer
62
0
10
283482.875000
20
768985.687500
30
226.330002
11
283091.187500
21
768769.812500
31
225.509995
12
282707.531250
22
768354.125000
32
224.500000
13
282707.531250
23
768354.125000
33
224.500000
0
3DFACE
8
layer
62
0
10
283450.875000
20
769785.062500
30
244.119995
11
283251.031250
21
769777.062500
31
232.580002
12
283259.031250
22
769577.187500
32
226.410004
13
283259.031250
23
769577.187500
33
226.410004
0
3DFACE
8
layer
62
0
10
283514.875000
20
768186.312500
30
223.399994
11
283506.875000
21
768386.125000
31
225.330002
12
282707.531250
22
768354.125000
32
224.500000
13
282707.531250
23
768354.125000
33
224.500000
0
3DFACE
8
layer
62
0
10
283458.875000
20
769585.187500
30
265.489990
11
283259.031250
21
769577.187500
31
226.410004
12
283267.031250
22
769377.375000
32
235.679993
13
283267.031250
23
769377.375000
33
235.679993
0
3DFACE
8
layer
62
0
10
283466.875000
20
769385.375000
30
271.010010
11
283267.031250
21
769377.375000
31
235.679993
12
283275.031250
22
769177.500000
32
234.869995
13
283275.031250
23
769177.500000
33
234.869995
0
3DFACE
8
layer
62
0
10
282952.312500
20
768128.187500
30
223.045425
11
283077.718750
21
768128.187500
31
225.444260
12
282707.531250
22
768354.125000
32
224.500000
13
282707.531250
23
768354.125000
33
224.500000
0
3DFACE
8
layer
62
0
10
283474.875000
20
769185.500000
30
250.729996
11
283275.031250
21
769177.500000
31
234.869995
12
283283.031250
22
768977.687500
32
226.000000
13
283283.031250
23
768977.687500
33
226.000000
0
3DFACE
8
layer
62
0
10
283482.875000
20
768985.687500
30
226.330002
11
283283.031250
21
768977.687500
31
226.000000
12
283091.187500
22
768769.812500
32
225.509995
13
283091.187500
23
768769.812500
33
225.509995
0
3DFACE
8
layer
62
0
10
283434.875000
20
770184.687500
30
277.369995
11
283426.875000
21
770384.562500
31
289.859985
12
283035.187500
22
770168.687500
32
250.339996
13
283035.187500
23
770168.687500
33
250.339996
0
3DFACE
8
layer
62
0
10
283442.875000
20
769984.875000
30
274.070007
11
283434.875000
21
770184.687500
31
277.369995
12
283243.031250
22
769976.875000
32
241.250000
13
283243.031250
23
769976.875000
33
241.250000
0
3DFACE
8
layer
62
0
10
283450.875000
20
769785.062500
30
244.119995
11
283442.875000
21
769984.875000
31
274.070007
12
283251.031250
22
769777.062500
32
232.580002
13
283251.031250
23
769777.062500
33
232.580002
0
3DFACE
8
layer
62
0
10
283538.187500
20
770922.187500
30
298.620453
11
283405.343750
21
770922.187500
31
298.703552
12
283410.875000
22
770784.250000
32
291.890015
13
283410.875000
23
770784.250000
33
291.890015
0
3DFACE
8
layer
62
0
10
283458.875000
20
769585.187500
30
265.489990
11
283450.875000
21
769785.062500
31
244.119995
12
283259.031250
22
769577.187500
32
226.410004
13
283259.031250
23
769577.187500
33
226.410004
0
3DFACE
8
layer
62
0
10
283618.718750
20
770592.375000
30
297.350006
11
283410.875000
21
770784.250000
31
291.890015
12
283418.875000
22
770584.375000
32
289.880005
13
283418.875000
23
770584.375000
33
289.880005
0
3DFACE
8
layer
62
0
10
283466.875000
20
769385.375000
30
271.010010
11
283458.875000
21
769585.187500
31
265.489990
12
283267.031250
22
769377.375000
32
235.679993
13
283267.031250
23
769377.375000
33
235.679993
0
3DFACE
8
layer
62
0
10
283618.718750
20
770592.375000
30
297.350006
11
283418.875000
21
770584.375000
31
289.880005
12
283426.875000
22
770384.562500
32
289.859985
13
283426.875000
23
770384.562500
33
289.859985
0
3DFACE
8
layer
62
0
10
283474.875000
20
769185.500000
30
250.729996
11
283466.875000
21
769385.375000
31
271.010010
12
283275.031250
22
769177.500000
32
234.869995
13
283275.031250
23
769177.500000
33
234.869995
0
3DFACE
8
layer
62
0
10
283626.718750
20
770392.562500
30
294.250000
11
283426.875000
21
770384.562500
31
289.859985
12
283434.875000
22
770184.687500
32
277.369995
13
283434.875000
23
770184.687500
33
277.369995
0
3DFACE
8
layer
62
0
10
283482.875000
20
768985.687500
30
226.330002
11
283474.875000
21
769185.500000
31
250.729996
12
283283.031250
22
768977.687500
32
226.000000
13
283283.031250
23
768977.687500
33
226.000000
0
3DFACE
8
layer
62
0
10
283634.718750
20
770192.687500
30
284.019989
11
283434.875000
21
770184.687500
31
277.369995
12
283442.875000
22
769984.875000
32
274.070007
13
283442.875000
23
769984.875000
33
274.070007
0
3DFACE
8
layer
62
0
10
283642.718750
20
769992.875000
30
295.070007
11
283442.875000
21
769984.875000
31
274.070007
12
283450.875000
22
769785.062500
32
244.119995
13
283450.875000
23
769785.062500
33
244.119995
0
3DFACE
8
layer
62
0
10
283650.718750
20
769793.062500
30
297.260010
11
283450.875000
21
769785.062500
31
244.119995
12
283458.875000
22
769585.187500
32
265.489990
13
283458.875000
23
769585.187500
33
265.489990
0
3DFACE
8
layer
62
0
10
283666.718750
20
769393.375000
30
284.359985
11
283458.875000
21
769585.187500
31
265.489990
12
283466.875000
22
769385.375000
32
271.010010
13
283466.875000
23
769385.375000
33
271.010010
0
3DFACE
8
layer
62
0
10
283714.718750
20
768194.312500
30
224.789993
11
283706.718750
21
768394.125000
31
223.309998
12
283514.875000
22
768186.312500
32
223.399994
13
283514.875000
23
768186.312500
33
223.399994
0
3DFACE
8
layer
62
0
10
283666.718750
20
769393.375000
30
284.359985
11
283466.875000
21
769385.375000
31
271.010010
12
283474.875000
22
769185.500000
32
250.729996
13
283474.875000
23
769185.500000
33
250.729996
0
3DFACE
8
layer
62
0
10
283461.250000
20
768128.187500
30
224.146515
11
283517.218750
21
768128.187500
31
234.955795
12
283514.875000
22
768186.312500
32
223.399994
13
283514.875000
23
768186.312500
33
223.399994
0
3DFACE
8
layer
62
0
10
283674.718750
20
769193.500000
30
230.789993
11
283474.875000
21
769185.500000
31
250.729996
12
283482.875000
22
768985.687500
32
226.330002
13
283482.875000
23
768985.687500
33
226.330002
0
3DFACE
8
layer
62
0
10
283698.718750
20
768594.000000
30
225.610001
11
283482.875000
21
768985.687500
31
226.330002
12
283506.875000
22
768386.125000
32
225.330002
13
283506.875000
23
768386.125000
33
225.330002
0
3DFACE
8
layer
62
0
10
283706.718750
20
768394.125000
30
223.309998
11
283506.875000
21
768386.125000
31
225.330002
12
283514.875000
22
768186.312500
32
223.399994
13
283514.875000
23
768186.312500
33
223.399994
0
3DFACE
8
layer
62
0
10
283626.718750
20
770392.562500
30
294.250000
11
283618.718750
21
770592.375000
31
297.350006
12
283426.875000
22
770384.562500
32
289.859985
13
283426.875000
23
770384.562500
33
289.859985
0
3DFACE
8
layer
62
0
10
283634.718750
20
770192.687500
30
284.019989
11
283626.718750
21
770392.562500
31
294.250000
12
283434.875000
22
770184.687500
32
277.369995
13
283434.875000
23
770184.687500
33
277.369995
0
3DFACE
8
layer
62
0
10
283642.718750
20
769992.875000
30
295.070007
11
283634.718750
21
770192.687500
31
284.019989
12
283442.875000
22
769984.875000
32
274.070007
13
283442.875000
23
769984.875000
33
274.070007
0
3DFACE
8
layer
62
0
10
283650.718750
20
769793.062500
30
297.260010
11
283642.718750
21
769992.875000
31
295.070007
12
283450.875000
22
769785.062500
32
244.119995
13
283450.875000
23
769785.062500
33
244.119995
0
3DFACE
8
layer
62
0
10
283666.718750
20
769393.375000
30
284.359985
11
283650.718750
21
769793.062500
31
297.260010
12
283458.875000
22
769585.187500
32
265.489990
13
283458.875000
23
769585.187500
33
265.489990
0
3DFACE
8
layer
62
0
10
283818.562500
20
770600.375000
30
299.130005
11
283618.718750
21
770592.375000
31
297.350006
12
283626.718750
22
770392.562500
32
294.250000
13
283626.718750
23
770392.562500
33
294.250000
0
3DFACE
8
layer
62
0
10
283674.718750
20
769193.500000
30
230.789993
11
283666.718750
21
769393.375000
31
284.359985
12
283474.875000
22
769185.500000
32
250.729996
13
283474.875000
23
769185.500000
33
250.729996
0
3DFACE
8
layer
62
0
10
283826.562500
20
770400.562500
30
294.450012
11
283626.718750
21
770392.562500
31
294.250000
12
283634.718750
22
770192.687500
32
284.019989
13
283634.718750
23
770192.687500
33
284.019989
0
3DFACE
8
layer
62
0
10
283682.718750
20
768993.687500
30
223.179993
11
283674.718750
21
769193.500000
31
230.789993
12
283482.875000
22
768985.687500
32
226.330002
13
283482.875000
23
768985.687500
33
226.330002
0
3DFACE
8
layer
62
0
10
284034.375000
20
770208.687500
30
289.859985
11
283634.718750
21
770192.687500
31
284.019989
12
283642.718750
22
769992.875000
32
295.070007
13
283642.718750
23
769992.875000
33
295.070007
0
3DFACE
8
layer
62
0
10
283698.718750
20
768594.000000
30
225.610001
11
283682.718750
21
768993.687500
31
223.179993
12
283482.875000
22
768985.687500
32
226.330002
13
283482.875000
23
768985.687500
33
226.330002
0
3DFACE
8
layer
62
0
10
283842.562500
20
770000.875000
30
294.350006
11
283642.718750
21
769992.875000
31
295.070007
12
283650.718750
22
769793.062500
32
297.260010
13
283650.718750
23
769793.062500
33
297.260010
0
3DFACE
8
layer
62
0
10
283850.562500
20
769801.062500
30
296.910004
11
283650.718750
21
769793.062500
31
297.260010
12
283666.718750
22
769393.375000
32
284.359985
13
283666.718750
23
769393.375000
33
284.359985
0
3DFACE
8
layer
62
0
10
283706.718750
20
768394.125000
30
223.309998
11
283698.718750
21
768594.000000
31
225.610001
12
283506.875000
22
768386.125000
32
225.330002
13
283506.875000
23
768386.125000
33
225.330002
0
3DFACE
8
layer
62
0
10
283914.562500
20
768202.312500
30
236.990005
11
283906.562500
21
768402.125000
31
225.330002
12
283714.718750
22
768194.312500
32
224.789993
13
283714.718750
23
768194.312500
33
224.789993
0
3DFACE
8
layer
62
0
10
283866.562500
20
769401.375000
30
242.330002
11
283666.718750
21
769393.375000
31
284.359985
12
283674.718750
22
769193.500000
32
230.789993
13
283674.718750
23
769193.500000
33
230.789993
0
3DFACE
8
layer
62
0
10
283653.687500
20
768128.187500
30
236.988632
11
283717.375000
21
768128.187500
31
233.642792
12
283714.718750
22
768194.312500
32
224.789993
13
283714.718750
23
768194.312500
33
224.789993
0
3DFACE
8
layer
62
0
10
283874.562500
20
769201.500000
30
223.229996
11
283674.718750
21
769193.500000
31
230.789993
12
283682.718750
22
768993.687500
32
223.179993
13
283682.718750
23
768993.687500
33
223.179993
0
3DFACE
8
layer
62
0
10
283906.562500
20
768402.125000
30
225.330002
11
283706.718750
21
768394.125000
31
223.309998
12
283714.718750
22
768194.312500
32
224.789993
13
283714.718750
23
768194.312500
33
224.789993
0
3DFACE
8
layer
62
0
10
283826.562500
20
770400.562500
30
294.450012
11
283818.562500
21
770600.375000
31
299.130005
12
283626.718750
22
770392.562500
32
294.250000
13
283626.718750
23
770392.562500
33
294.250000
0
3DFACE
8
layer
62
0
10
284034.375000
20
770208.687500
30
289.859985
11
283826.562500
21
770400.562500
31
294.450012
12
283634.718750
22
770192.687500
32
284.019989
13
283634.718750
23
770192.687500
33
284.019989
0
3DFACE
8
layer
62
0
10
283842.562500
20
770000.875000
30
294.350006
11
284034.375000
21
770208.687500
31
289.859985
12
283642.718750
22
769992.875000
32
295.070007
13
283642.718750
23
769992.875000
33
295.070007
0
3DFACE
8
layer
62
0
10
283850.562500
20
769801.062500
30
296.910004
11
283842.562500
21
770000.875000
31
294.350006
12
283650.718750
22
769793.062500
32
297.260010
13
283650.718750
23
769793.062500
33
297.260010
0
3DFACE
8
layer
62
0
10
283858.562500
20
769601.187500
30
295.950012
11
283850.562500
21
769801.062500
31
296.910004
12
283666.718750
22
769393.375000
32
284.359985
13
283666.718750
23
769393.375000
33
284.359985
0
3DFACE
8
layer
62
0
10
283866.562500
20
769401.375000
30
242.330002
11
283858.562500
21
769601.187500
31
295.950012
12
283666.718750
22
769393.375000
32
284.359985
13
283666.718750
23
769393.375000
33
284.359985
0
3DFACE
8
layer
62
0
10
284018.375000
20
770608.375000
30
295.260010
11
283818.562500
21
770600.375000
31
299.130005
12
283826.562500
22
770400.562500
32
294.450012
13
283826.562500
23
770400.562500
33
294.450012
0
3DFACE
8
layer
62
0
10
283874.562500
20
769201.500000
30
223.229996
11
283866.562500
21
769401.375000
31
242.330002
12
283674.718750
22
769193.500000
32
230.789993
13
283674.718750
23
769193.500000
33
230.789993
0
3DFACE
8
layer
62
0
10
284026.375000
20
770408.562500
30
289.679993
11
283826.562500
21
770400.562500
31
294.450012
12
284034.375000
22
770208.687500
32
289.859985
13
284034.375000
23
770208.687500
33
289.859985
0
3DFACE
8
layer
62
0
10
284042.375000
20
770008.875000
30
285.660004
11
283842.562500
21
770000.875000
31
294.350006
12
283850.562500
22
769801.062500
32
296.910004
13
283850.562500
23
769801.062500
33
296.910004
0
3DFACE
8
layer
62
0
10
284050.406250
20
769809.062500
30
275.579987
11
283850.562500
21
769801.062500
31
296.910004
12
283858.562500
22
769601.187500
32
295.950012
13
283858.562500
23
769601.187500
33
295.950012
0
3DFACE
8
layer
62
0
10
284058.406250
20
769609.187500
30
223.410004
11
283858.562500
21
769601.187500
31
295.950012
12
283866.562500
22
769401.375000
32
242.330002
13
283866.562500
23
769401.375000
33
242.330002
0
3DFACE
8
layer
62
0
10
284038.593750
20
768128.187500
30
247.283340
11
284067.437500
21
768128.187500
31
246.051270
12
284067.437500
22
768159.437500
32
247.202240
13
284067.437500
23
768159.437500
33
247.202240
0
3DFACE
8
layer
62
0
10
284066.406250
20
769409.375000
30
223.869995
11
283866.562500
21
769401.375000
31
242.330002
12
283874.562500
22
769201.500000
32
223.229996
13
283874.562500
23
769201.500000
33
223.229996
0
3DFACE
8
layer
62
0
10
283846.156250
20
768128.187500
30
242.181839
11
283917.531250
21
768128.187500
31
240.928528
12
283914.562500
22
768202.312500
32
236.990005
13
283914.562500
23
768202.312500
33
236.990005
0
3DFACE
8
layer
62
0
10
284018.375000
20
770608.375000
30
295.260010
11
284010.375000
21
770808.250000
31
292.500000
12
283818.562500
22
770600.375000
32
299.130005
13
283818.562500
23
770600.375000
33
299.130005
0
3DFACE
8
layer
62
0
10
284026.375000
20
770408.562500
30
289.679993
11
284018.375000
21
770608.375000
31
295.260010
12
283826.562500
22
770400.562500
32
294.450012
13
283826.562500
23
770400.562500
33
294.450012
0
3DFACE
8
layer
62
0
10
284042.375000
20
770008.875000
30
285.660004
11
284034.375000
21
770208.687500
31
289.859985
12
283842.562500
22
770000.875000
32
294.350006
13
283842.562500
23
770000.875000
33
294.350006
0
3DFACE
8
layer
62
0
10
284050.406250
20
769809.062500
30
275.579987
11
284042.375000
21
770008.875000
31
285.660004
12
283850.562500
22
769801.062500
32
296.910004
13
283850.562500
23
769801.062500
33
296.910004
0
3DFACE
8
layer
62
0
10
284058.406250
20
769609.187500
30
223.410004
11
284050.406250
21
769809.062500
31
275.579987
12
283858.562500
22
769601.187500
32
295.950012
13
283858.562500
23
769601.187500
33
295.950012
0
3DFACE
8
layer
62
0
10
284066.406250
20
769409.375000
30
223.869995
11
284058.406250
21
769609.187500
31
223.410004
12
283866.562500
22
769401.375000
32
242.330002
13
283866.562500
23
769401.375000
33
242.330002
0
3DFACE
8
layer
62
0
10
284067.437500
20
768408.625000
30
265.956451
11
284067.437500
21
768576.437500
31
223.501999
12
283906.562500
22
768402.125000
32
225.330002
13
283906.562500
23
768402.125000
33
225.330002
0
3DFACE
8
layer
62
0
10
284067.437500
20
768208.437500
30
244.700455
11
284067.437500
21
768367.937500
31
267.914886
12
283914.562500
22
768202.312500
32
236.990005
13
283914.562500
23
768202.312500
33
236.990005
0
3DFACE
8
layer
62
0
10
284067.437500
20
769383.687500
30
223.846863
11
284067.437500
21
769407.937500
31
223.872818
12
284066.406250
22
769409.375000
32
223.869995
13
284066.406250
23
769409.375000
33
223.869995
0
3DFACE
8
layer
62
0
10
284067.437500
20
770610.375000
30
291.623657
11
284067.437500
21
770661.500000
31
295.150085
12
284018.375000
22
770608.375000
32
295.260010
13
284018.375000
23
770608.375000
33
295.260010
0
3DFACE
8
layer
62
0
10
284067.437500
20
770410.187500
30
285.150391
11
284067.437500
21
770453.000000
31
287.703613
12
284026.375000
22
770408.562500
32
289.679993
13
284026.375000
23
770408.562500
33
289.679993
0
3DFACE
8
layer
62
0
10
284067.437500
20
770210.062500
30
288.024414
11
284067.437500
21
770244.500000
31
286.030548
12
284034.375000
22
770208.687500
32
289.859985
13
284034.375000
23
770208.687500
33
289.859985
0
3DFACE
8
layer
62
0
10
284067.437500
20
770009.875000
30
282.546112
11
284067.437500
21
770022.687500
31
284.509003
12
284042.375000
22
770008.875000
32
285.660004
13
284042.375000
23
770008.875000
33
285.660004
0
3DFACE
8
layer
62
0
10
284067.437500
20
769809.687500
30
271.131500
11
284067.437500
21
769827.500000
31
274.267914
12
284050.406250
22
769809.062500
32
275.579987
13
284050.406250
23
769809.062500
33
275.579987
0
3DFACE
8
layer
62
0
10
284067.437500
20
769615.750000
30
223.431671
11
284067.437500
21
769619.000000
31
223.408585
12
284058.406250
22
769609.187500
32
223.410004
13
284058.406250
23
769609.187500
33
223.410004
0
3DFACE
8
layer
62
0
10
284067.437500
20
769607.750000
30
223.428284
11
284067.437500
21
769615.750000
31
223.431671
12
284058.406250
22
769609.187500
32
223.410004
13
284058.406250
23
769609.187500
33
223.410004
0
3DFACE
8
layer
62
0
10
284067.437500
20
769407.937500
30
223.872818
11
284067.437500
21
769408.750000
31
223.872467
12
284066.406250
22
769409.375000
32
223.869995
13
284066.406250
23
769409.375000
33
223.869995
0
3DFACE
8
layer
62
0
10
284067.437500
20
769408.750000
30
223.872467
11
284067.437500
21
769409.125000
31
223.871979
12
284066.406250
22
769409.375000
32
223.869995
13
284066.406250
23
769409.375000
33
223.869995
0
3DFACE
8
layer
62
0
10
284067.437500
20
769409.125000
30
223.871979
11
284067.437500
21
769409.375000
31
223.871628
12
284066.406250
22
769409.375000
32
223.869995
13
284066.406250
23
769409.375000
33
223.869995
0
3DFACE
8
layer
62
0
10
281636.312500
20
770112.687500
30
303.440002
11
281626.875000
21
770311.000000
31
304.607300
12
281626.875000
22
770112.312500
32
303.415436
13
281626.875000
23
770112.312500
33
303.415436
0
3DFACE
8
layer
62
0
10
281644.312500
20
769912.875000
30
294.429993
11
281626.875000
21
770102.500000
31
303.308685
12
281626.875000
22
769912.187500
32
294.983185
13
281626.875000
23
769912.187500
33
294.983185
0
3DFACE
8
layer
62
0
10
281652.312500
20
769713.000000
30
286.730011
11
281626.875000
21
769894.000000
31
293.822845
12
281626.875000
22
769712.000000
32
286.859833
13
281626.875000
23
769712.000000
33
286.859833
0
3DFACE
8
layer
62
0
10
281660.312500
20
769513.187500
30
260.690002
11
281626.875000
21
769685.437500
31
283.457458
12
281626.875000
22
769511.875000
32
260.917572
13
281626.875000
23
769511.875000
33
260.917572
0
3DFACE
8
layer
62
0
10
281668.312500
20
769313.375000
30
263.059998
11
281626.875000
21
769476.937500
31
262.187286
12
281626.875000
22
769311.687500
32
264.349792
13
281626.875000
23
769311.687500
33
264.349792
0
3DFACE
8
layer
62
0
10
281676.312500
20
769113.500000
30
286.000000
11
281626.875000
21
769268.437500
31
268.317749
12
281626.875000
22
769111.500000
32
286.346375
13
281626.875000
23
769111.500000
33
286.346375
0
3DFACE
8
layer
62
0
10
281684.312500
20
768913.687500
30
295.220001
11
281626.875000
21
769059.937500
31
288.791107
12
281626.875000
22
768911.375000
32
295.682770
13
281626.875000
23
768911.375000
33
295.682770
0
3DFACE
8
layer
62
0
10
281692.312500
20
768713.812500
30
270.290009
11
281626.875000
21
768911.375000
31
295.324921
12
281626.875000
22
768743.312500
32
274.409027
13
281626.875000
23
768743.312500
33
274.409027
0
3DFACE
8
layer
62
0
10
281700.312500
20
768514.000000
30
255.360001
11
281626.875000
21
768642.937500
31
269.583862
12
281626.875000
22
768511.062500
32
260.086182
13
281626.875000
23
768511.062500
33
260.086182
0
3DFACE
8
layer
62
0
10
281708.312500
20
768314.125000
30
271.500000
11
281626.875000
21
768434.437500
31
261.638550
12
281626.875000
22
768310.875000
32
271.605957
13
281626.875000
23
768310.875000
33
271.605957
0
3DFACE
8
layer
62
0
10
281626.875000
20
768128.187500
30
278.001373
11
281708.312500
21
768314.125000
31
271.500000
12
281626.875000
22
768225.937500
32
278.122925
13
281626.875000
23
768225.937500
33
278.122925
0
3DFACE
8
layer
62
0
10
281812.156250
20
770720.250000
30
309.890015
11
281626.875000
21
770728.000000
31
309.272888
12
281626.875000
22
770712.812500
32
309.194672
13
281626.875000
23
770712.812500
33
309.194672
0
3DFACE
8
layer
62
0
10
281820.156250
20
770520.375000
30
306.769989
11
281626.875000
21
770519.500000
31
309.368469
12
281626.875000
22
770512.625000
32
309.265228
13
281626.875000
23
770512.625000
33
309.265228
0
3DFACE
8
layer
62
0
10
281628.312500
20
770312.562500
30
304.619995
11
281626.875000
21
770512.625000
31
309.265228
12
281626.875000
22
770348.375000
32
305.468201
13
281626.875000
23
770348.375000
33
305.468201
0
3DFACE
8
layer
62
0
10
281626.875000
20
770912.937500
30
309.133606
11
281801.843750
21
770922.187500
31
310.950317
12
281626.875000
22
770922.187500
32
309.479523
13
281626.875000
23
770922.187500
33
309.479523
0
3DFACE
8
layer
62
0
10
282012.000000
20
770728.250000
30
297.299988
11
282204.375000
21
770922.187500
31
306.610596
12
282191.031250
22
770922.187500
32
306.230957
13
282191.031250
23
770922.187500
33
306.230957
0
3DFACE
8
layer
62
0
10
281804.156250
20
770920.062500
30
310.890015
11
281998.562500
21
770922.187500
31
301.931610
12
281857.187500
22
770922.187500
32
308.451447
13
281857.187500
23
770922.187500
33
308.451447
0
3DFACE
8
layer
62
0
10
281812.156250
20
770720.250000
30
309.890015
11
282004.218750
21
770922.187500
31
301.570587
12
281998.562500
22
770922.187500
32
301.931610
13
281998.562500
23
770922.187500
33
301.931610
0
3DFACE
8
layer
62
0
10
282219.843750
20
770536.375000
30
299.399994
11
282218.875000
21
770922.187500
31
307.149261
12
282204.375000
22
770922.187500
32
306.610596
13
282204.375000
23
770922.187500
33
306.610596
0
3DFACE
8
layer
62
0
10
282411.656250
20
770744.250000
30
310.730011
11
282604.687500
21
770922.187500
31
306.595673
12
282575.937500
22
770922.187500
32
306.697144
13
282575.937500
23
770922.187500
33
306.697144
0
3DFACE
8
layer
62
0
10
282611.500000
20
770752.250000
30
309.869995
11
282804.875000
21
770922.187500
31
299.195892
12
282768.375000
22
770922.187500
32
300.367889
13
282768.375000
23
770922.187500
33
300.367889
0
3DFACE
8
layer
62
0
10
282811.343750
20
770760.250000
30
303.239990
11
283005.031250
21
770922.187500
31
295.342255
12
282960.843750
22
770922.187500
32
296.842438
13
282960.843750
23
770922.187500
33
296.842438
0
3DFACE
8
layer
62
0
10
283211.031250
20
770776.250000
30
289.489990
11
283405.343750
21
770922.187500
31
298.703552
12
283345.750000
22
770922.187500
32
298.106598
13
283345.750000
23
770922.187500
33
298.106598
0
3DFACE
8
layer
62
0
10
283011.187500
20
770768.250000
30
296.390015
11
283205.187500
21
770922.187500
31
293.875854
12
283080.625000
22
770922.187500
32
298.319763
13
283080.625000
23
770922.187500
33
298.319763
0
3DFACE
8
layer
62
0
10
283410.875000
20
770784.250000
30
291.890015
11
283714.156250
21
770922.187500
31
305.395081
12
283538.187500
22
770922.187500
32
298.620453
13
283538.187500
23
770922.187500
33
298.620453
0
3DFACE
8
layer
62
0
10
283618.718750
20
770592.375000
30
297.350006
11
283805.656250
21
770922.187500
31
306.129242
12
283714.156250
22
770922.187500
32
305.395081
13
283714.156250
23
770922.187500
33
305.395081
0
3DFACE
8
layer
62
0
10
283818.562500
20
770600.375000
30
299.130005
11
283947.593750
21
770922.187500
31
298.222656
12
283805.656250
22
770922.187500
32
306.129242
13
283805.656250
23
770922.187500
33
306.129242
0
3DFACE
8
layer
62
0
10
284067.437500
20
770810.500000
30
293.165009
11
283947.593750
21
770922.187500
31
298.222656
12
284010.375000
22
770808.250000
32
292.500000
13
284010.375000
23
770808.250000
33
292.500000
0
3DFACE
8
layer
62
0
10
283682.718750
20
768993.687500
30
223.179993
11
284067.437500
21
768608.750000
31
223.340652
12
284067.437500
22
768638.562500
32
223.152237
13
284067.437500
23
768638.562500
33
223.152237
0
3DFACE
8
layer
62
0
10
283698.718750
20
768594.000000
30
225.610001
11
284067.437500
21
768592.937500
31
223.162659
12
284067.437500
22
768608.750000
32
223.340652
13
284067.437500
23
768608.750000
33
223.340652
0
3DFACE
8
layer
62
0
10
283874.562500
20
769201.500000
30
223.229996
11
284067.437500
21
768638.562500
31
223.152237
12
284067.437500
22
768691.875000
32
223.161072
13
284067.437500
23
768691.875000
33
223.161072
0
3DFACE
8
layer
62
0
10
283706.718750
20
768394.125000
30
223.309998
11
284067.437500
21
768576.437500
31
223.501999
12
284067.437500
22
768592.937500
32
223.162659
13
284067.437500
23
768592.937500
33
223.162659
0
3DFACE
8
layer
62
0
10
284066.406250
20
769409.375000
30
223.869995
11
284067.437500
21
768691.875000
31
223.161072
12
284067.437500
22
769383.687500
32
223.846863
13
284067.437500
23
769383.687500
33
223.846863
0
3DFACE
8
layer
62
0
10
283906.562500
20
768402.125000
30
225.330002
11
284067.437500
21
768367.937500
31
267.914886
12
284067.437500
22
768408.625000
32
265.956451
13
284067.437500
23
768408.625000
33
265.956451
0
3DFACE
8
layer
62
0
10
283917.531250
20
768128.187500
30
240.928528
11
284067.437500
21
768159.437500
31
247.202240
12
283914.562500
22
768202.312500
32
236.990005
13
283914.562500
23
768202.312500
33
236.990005
0
3DFACE
8
layer
62
0
10
284010.375000
20
770808.250000
30
292.500000
11
284067.437500
21
770661.500000
31
295.150085
12
284067.437500
22
770810.500000
32
293.165009
13
284067.437500
23
770810.500000
33
293.165009
0
3DFACE
8
layer
62
0
10
284018.375000
20
770608.375000
30
295.260010
11
284067.437500
21
770453.000000
31
287.703613
12
284067.437500
22
770610.375000
32
291.623657
13
284067.437500
23
770610.375000
33
291.623657
0
3DFACE
8
layer
62
0
10
284026.375000
20
770408.562500
30
289.679993
11
284067.437500
21
770244.500000
31
286.030548
12
284067.437500
22
770410.187500
32
285.150391
13
284067.437500
23
770410.187500
33
285.150391
0
3DFACE
8
layer
62
0
10
284034.375000
20
770208.687500
30
289.859985
11
284067.437500
21
770022.687500
31
284.509003
12
284067.437500
22
770210.062500
32
288.024414
13
284067.437500
23
770210.062500
33
288.024414
0
3DFACE
8
layer
62
0
10
284042.375000
20
770008.875000
30
285.660004
11
284067.437500
21
769827.500000
31
274.267914
12
284067.437500
22
770009.875000
32
282.546112
13
284067.437500
23
770009.875000
33
282.546112
0
3DFACE
8
layer
62
0
10
284050.406250
20
769809.062500
30
275.579987
11
284067.437500
21
769619.000000
31
223.408585
12
284067.437500
22
769809.687500
32
271.131500
13
284067.437500
23
769809.687500
33
271.131500
0
3DFACE
8
layer
62
0
10
284058.406250
20
769609.187500
30
223.410004
11
284067.437500
21
769409.375000
31
223.871628
12
284067.437500
22
769607.750000
32
223.428284
13
284067.437500
23
769607.750000
33
223.428284
0
3DFACE
8
layer
62
0
10
281908.156250
20
768322.125000
30
259.480011
11
281715.750000
21
768128.187500
31
270.653290
12
281729.156250
22
768128.187500
32
269.847076
13
281729.156250
23
768128.187500
33
269.847076
0
3DFACE
8
layer
62
0
10
282116.000000
20
768130.312500
30
225.699997
11
281921.593750
21
768128.187500
31
237.014664
12
282063.468750
22
768128.187500
32
228.710587
13
282063.468750
23
768128.187500
33
228.710587
0
3DFACE
8
layer
62
0
10
282108.000000
20
768330.125000
30
232.380005
11
281915.937500
21
768128.187500
31
237.808960
12
281921.593750
22
768128.187500
32
237.014664
13
281921.593750
23
768128.187500
33
237.014664
0
3DFACE
8
layer
62
0
10
282315.843750
20
768138.312500
30
224.130005
11
282114.062500
21
768128.187500
31
225.675095
12
282297.500000
22
768128.187500
32
224.088333
13
282297.500000
23
768128.187500
33
224.088333
0
3DFACE
8
layer
62
0
10
282307.843750
20
768338.125000
30
227.070007
11
282326.781250
21
768128.187500
31
224.148956
12
282423.531250
22
768128.187500
32
225.687088
13
282423.531250
23
768128.187500
33
225.687088
0
3DFACE
8
layer
62
0
10
282707.531250
20
768354.125000
30
224.500000
11
282423.531250
21
768128.187500
31
225.687088
12
282605.625000
22
768128.187500
32
224.494461
13
282605.625000
23
768128.187500
33
224.494461
0
3DFACE
8
layer
62
0
10
283514.875000
20
768186.312500
30
223.399994
11
283077.718750
21
768128.187500
31
225.444260
12
283461.250000
22
768128.187500
32
224.146515
13
283461.250000
23
768128.187500
33
224.146515
0
3DFACE
8
layer
62
0
10
283714.718750
20
768194.312500
30
224.789993
11
283517.218750
21
768128.187500
31
234.955795
12
283653.687500
22
768128.187500
32
236.988632
13
283653.687500
23
768128.187500
33
236.988632
0
3DFACE
8
layer
62
0
10
283914.562500
20
768202.312500
30
236.990005
11
283717.375000
21
768128.187500
31
233.642792
12
283846.156250
22
768128.187500
32
242.181839
13
283846.156250
23
768128.187500
33
242.181839
0
ENDSEC
0
EOF
