<?xml version="1.0" encoding="UTF-8" standalone="no"?>
<svg
   xmlns:dc="http://purl.org/dc/elements/1.1/"
   xmlns:cc="http://creativecommons.org/ns#"
   xmlns:rdf="http://www.w3.org/1999/02/22-rdf-syntax-ns#"
   xmlns:svg="http://www.w3.org/2000/svg"
   xmlns="http://www.w3.org/2000/svg"
   xmlns:sodipodi="http://sodipodi.sourceforge.net/DTD/sodipodi-0.dtd"
   xmlns:inkscape="http://www.inkscape.org/namespaces/inkscape"
   id="Layer_1"
   data-name="Layer 1"
   viewBox="0 0 64 64"
   version="1.1"
   sodipodi:docname="pqSaveState.svg"
   inkscape:version="0.92.5 (2060ec1f9f, 2020-04-08)">
  <metadata
     id="metadata21">
    <rdf:RDF>
      <cc:Work
         rdf:about="">
        <dc:format>image/svg+xml</dc:format>
        <dc:type
           rdf:resource="http://purl.org/dc/dcmitype/StillImage" />
        <dc:title>SVG_Artboards</dc:title>
      </cc:Work>
    </rdf:RDF>
  </metadata>
  <defs
     id="defs19" />
  <sodipodi:namedview
     pagecolor="#ffffff"
     bordercolor="#666666"
     borderopacity="1"
     objecttolerance="10"
     gridtolerance="10"
     guidetolerance="10"
     inkscape:pageopacity="0"
     inkscape:pageshadow="2"
     inkscape:window-width="1920"
     inkscape:window-height="1136"
     id="namedview17"
     showgrid="false"
     inkscape:zoom="10"
     inkscape:cx="11.1"
     inkscape:cy="36.194915"
     inkscape:window-x="1920"
     inkscape:window-y="27"
     inkscape:window-maximized="1"
     inkscape:current-layer="Layer_1" />
  <title
     id="title2">SVG_Artboards</title>
  <g
     id="g27"
     transform="matrix(1.4742584,0,0,-1,-15.00665,63.379024)">
    <polygon
       transform="matrix(0.68225633,0,0,0.68225633,-0.48639698,23.214567)"
       id="polygon8"
       style="fill:#00d400"
       points="57.86,17.25 47.83,2.11 37.78,17.25 43.11,17.25 43.11,27.91 52.53,27.91 52.53,17.25 " />
    <path
       inkscape:connector-curvature="0"
       id="path10"
       style="fill:#6f6f59;stroke-width:0.68225634"
       d="m 35.352529,43 h -6.426856 a 0.77094966,0.77094966 0 0 1 -0.757304,-0.74366 v -6.501903 h -2.879122 a 0.7641271,0.7641271 0 0 1 -0.682255,-0.409354 0.75730454,0.75730454 0 0 1 0.03412,-0.784595 l 6.822556,-10.32936 A 0.77777223,0.77777223 0 0 1 32.104987,23.89 v 0 a 0.77777223,0.77777223 0 0 1 0.641322,0.341128 l 6.822564,10.32936 a 0.77094966,0.77094966 0 0 1 -0.641321,1.193949 H 36.062075 V 42.25634 A 0.77777223,0.77777223 0 0 1 35.352529,43 Z m -5.655906,-1.5419 h 4.884956 v -6.474612 a 0.77094966,0.77094966 0 0 1 0.77095,-0.764126 h 2.203688 l -5.410293,-8.187076 -5.423938,8.187076 h 2.203687 a 0.7641271,0.7641271 0 0 1 0.77095,0.764126 z" />
  </g>
  <g
     id="g33"
     transform="matrix(1.1069958,0,0,1.1069958,-4.3908631,-6.8818879)">
    <path
       inkscape:connector-curvature="0"
       id="path4"
       style="fill:#f0bc5e;stroke-width:0.50291765"
       d="M 31.013905,42.47914 30.00807,39.763384 h -7.14646 l -1.005835,2.715756 h -1.981496 a 0.69905554,0.69905554 0 0 0 -0.699055,0.683968 V 61.881703 H 42.857616 V 42.47914 Z" />
    <path
       inkscape:connector-curvature="0"
       id="path6"
       style="fill:#6f6f59;stroke-width:0.50291765"
       d="M 43.420884,62.45 H 18.606927 V 43.163108 a 1.2673525,1.2673525 0 0 1 1.267352,-1.267353 H 21.45847 L 22.464305,39.18 h 7.94107 l 1.005835,2.715755 H 43.420884 Z M 19.74352,61.313406 H 42.289319 V 43.047437 h -11.66769 l -1.005835,-2.720785 h -6.361908 l -1.005836,2.720785 h -2.373771 a 0.12572941,0.12572941 0 0 0 -0.130759,0.130758 z" />
    <path
       inkscape:connector-curvature="0"
       id="path12"
       style="fill:#f3d86a;stroke-width:0.50291765"
       d="M 47.011716,61.881703 H 23.932825 V 46.829378 a 0.4073633,0.4073633 0 0 1 0.412392,-0.412393 h 22.259136 a 0.4073633,0.4073633 0 0 1 0.407363,0.412393 z" />
    <path
       inkscape:connector-curvature="0"
       id="path14"
       style="fill:#6f6f59;stroke-width:0.50291765"
       d="M 47.580013,62.45 H 23.364528 V 46.829378 a 1.0058353,1.0058353 0 0 1 0.980689,-0.98069 h 22.259136 a 0.97566026,0.97566026 0 0 1 0.97566,0.98069 z M 24.501122,61.313406 H 46.443419 V 46.985282 H 24.501122 Z" />
  </g>
  <g
     id="g4567"
     transform="translate(0.1,-0.8)">
    <circle
       r="8.4500008"
       cy="11.499999"
       cx="32.100002"
       id="path23"
       style="fill:#0000f9;fill-opacity:1;stroke:#6f6f59;stroke-width:1.20000005;stroke-linecap:round;stroke-linejoin:round;stroke-miterlimit:4;stroke-dasharray:none;stroke-opacity:1" />
    <circle
       r="8.4500008"
       cy="11.499999"
       cx="11.6"
       id="path23-3"
       style="fill:#0000f9;fill-opacity:1;stroke:#6f6f59;stroke-width:1.20000005;stroke-linecap:round;stroke-linejoin:round;stroke-miterlimit:4;stroke-dasharray:none;stroke-opacity:1" />
    <circle
       r="8.4500008"
       cy="11.499999"
       cx="52.600002"
       id="path23-6"
       style="fill:#0000f9;fill-opacity:1;stroke:#6f6f59;stroke-width:1.20000005;stroke-linecap:round;stroke-linejoin:round;stroke-miterlimit:4;stroke-dasharray:none;stroke-opacity:1" />
  </g>
</svg>
