<?xml version="1.0" encoding="UTF-8" standalone="no"?>
<!-- Created with Inkscape (http://www.inkscape.org/) -->

<svg
   xmlns:dc="http://purl.org/dc/elements/1.1/"
   xmlns:cc="http://creativecommons.org/ns#"
   xmlns:rdf="http://www.w3.org/1999/02/22-rdf-syntax-ns#"
   xmlns:svg="http://www.w3.org/2000/svg"
   xmlns="http://www.w3.org/2000/svg"
   xmlns:sodipodi="http://sodipodi.sourceforge.net/DTD/sodipodi-0.dtd"
   xmlns:inkscape="http://www.inkscape.org/namespaces/inkscape"
   version="1.1"
   id="svg2"
   width="64"
   height="64"
   viewBox="0 0 64 64"
   sodipodi:docname="pqZoneFromBoundary.svg"
   inkscape:version="0.92.5 (2060ec1f9f, 2020-04-08)">
  <metadata
     id="metadata8">
    <rdf:RDF>
      <cc:Work
         rdf:about="">
        <dc:format>image/svg+xml</dc:format>
        <dc:type
           rdf:resource="http://purl.org/dc/dcmitype/StillImage" />
        <dc:title></dc:title>
      </cc:Work>
    </rdf:RDF>
  </metadata>
  <defs
     id="defs6">
    <marker
       inkscape:stockid="Arrow2Send"
       orient="auto"
       refY="0.0"
       refX="0.0"
       id="Arrow2Send"
       style="overflow:visible;"
       inkscape:isstock="true">
      <path
         id="path3183"
         style="fill-rule:evenodd;stroke-width:0.625;stroke-linejoin:round;stroke:#dc3151;stroke-opacity:1;fill:#dc3151;fill-opacity:1"
         d="M 8.7185878,4.0337352 L -2.2072895,0.016013256 L 8.7185884,-4.0017078 C 6.9730900,-1.6296469 6.9831476,1.6157441 8.7185878,4.0337352 z "
         transform="scale(0.3) rotate(180) translate(-2.3,0)" />
    </marker>
    <marker
       inkscape:stockid="Arrow2Mend"
       orient="auto"
       refY="0.0"
       refX="0.0"
       id="Arrow2Mend"
       style="overflow:visible;"
       inkscape:isstock="true">
      <path
         id="path3177"
         style="fill-rule:evenodd;stroke-width:0.625;stroke-linejoin:round;stroke:#dc3151;stroke-opacity:1;fill:#dc3151;fill-opacity:1"
         d="M 8.7185878,4.0337352 L -2.2072895,0.016013256 L 8.7185884,-4.0017078 C 6.9730900,-1.6296469 6.9831476,1.6157441 8.7185878,4.0337352 z "
         transform="scale(0.6) rotate(180) translate(0,0)" />
    </marker>
    <marker
       inkscape:stockid="Arrow1Mend"
       orient="auto"
       refY="0.0"
       refX="0.0"
       id="marker3556"
       style="overflow:visible;"
       inkscape:isstock="true">
      <path
         id="path3554"
         d="M 0.0,0.0 L 5.0,-5.0 L -12.5,0.0 L 5.0,5.0 L 0.0,0.0 z "
         style="fill-rule:evenodd;stroke:#dc3151;stroke-width:1pt;stroke-opacity:1;fill:#dc3151;fill-opacity:1"
         transform="scale(0.4) rotate(180) translate(10,0)" />
    </marker>
    <marker
       inkscape:stockid="Arrow1Mend"
       orient="auto"
       refY="0.0"
       refX="0.0"
       id="Arrow1Mend"
       style="overflow:visible;"
       inkscape:isstock="true">
      <path
         id="path3159"
         d="M 0.0,0.0 L 5.0,-5.0 L -12.5,0.0 L 5.0,5.0 L 0.0,0.0 z "
         style="fill-rule:evenodd;stroke:#dc3151;stroke-width:1pt;stroke-opacity:1;fill:#dc3151;fill-opacity:1"
         transform="scale(0.4) rotate(180) translate(10,0)" />
    </marker>
    <marker
       inkscape:stockid="Arrow1Lstart"
       orient="auto"
       refY="0.0"
       refX="0.0"
       id="marker3460"
       style="overflow:visible"
       inkscape:isstock="true">
      <path
         id="path3458"
         d="M 0.0,0.0 L 5.0,-5.0 L -12.5,0.0 L 5.0,5.0 L 0.0,0.0 z "
         style="fill-rule:evenodd;stroke:#dc3151;stroke-width:1pt;stroke-opacity:1;fill:#dc3151;fill-opacity:1"
         transform="scale(0.8) translate(12.5,0)" />
    </marker>
    <marker
       inkscape:stockid="Arrow1Lstart"
       orient="auto"
       refY="0.0"
       refX="0.0"
       id="Arrow1Lstart"
       style="overflow:visible"
       inkscape:isstock="true">
      <path
         id="path3150"
         d="M 0.0,0.0 L 5.0,-5.0 L -12.5,0.0 L 5.0,5.0 L 0.0,0.0 z "
         style="fill-rule:evenodd;stroke:#dc3151;stroke-width:1pt;stroke-opacity:1;fill:#dc3151;fill-opacity:1"
         transform="scale(0.8) translate(12.5,0)" />
    </marker>
    <marker
       inkscape:stockid="Arrow1Lend"
       orient="auto"
       refY="0.0"
       refX="0.0"
       id="Arrow1Lend"
       style="overflow:visible;"
       inkscape:isstock="true">
      <path
         id="path3153"
         d="M 0.0,0.0 L 5.0,-5.0 L -12.5,0.0 L 5.0,5.0 L 0.0,0.0 z "
         style="fill-rule:evenodd;stroke:#dc3151;stroke-width:1pt;stroke-opacity:1;fill:#dc3151;fill-opacity:1"
         transform="scale(0.8) rotate(180) translate(12.5,0)" />
    </marker>
    <marker
       inkscape:isstock="true"
       style="overflow:visible;"
       id="Arrow2Send-4"
       refX="0.0"
       refY="0.0"
       orient="auto"
       inkscape:stockid="Arrow2Send">
      <path
         transform="scale(0.3) rotate(180) translate(-2.3,0)"
         d="M 8.7185878,4.0337352 L -2.2072895,0.016013256 L 8.7185884,-4.0017078 C 6.9730900,-1.6296469 6.9831476,1.6157441 8.7185878,4.0337352 z "
         style="fill-rule:evenodd;stroke-width:0.625;stroke-linejoin:round;stroke:#dc3151;stroke-opacity:1;fill:#dc3151;fill-opacity:1"
         id="path3183-6" />
    </marker>
    <marker
       inkscape:isstock="true"
       style="overflow:visible;"
       id="Arrow2Mend-4"
       refX="0.0"
       refY="0.0"
       orient="auto"
       inkscape:stockid="Arrow2Mend">
      <path
         transform="scale(0.6) rotate(180) translate(0,0)"
         d="M 8.7185878,4.0337352 L -2.2072895,0.016013256 L 8.7185884,-4.0017078 C 6.9730900,-1.6296469 6.9831476,1.6157441 8.7185878,4.0337352 z "
         style="fill-rule:evenodd;stroke-width:0.625;stroke-linejoin:round;stroke:#dc3151;stroke-opacity:1;fill:#dc3151;fill-opacity:1"
         id="path3177-7" />
    </marker>
    <marker
       inkscape:isstock="true"
       style="overflow:visible;"
       id="marker3556-3"
       refX="0.0"
       refY="0.0"
       orient="auto"
       inkscape:stockid="Arrow1Mend">
      <path
         transform="scale(0.4) rotate(180) translate(10,0)"
         style="fill-rule:evenodd;stroke:#dc3151;stroke-width:1pt;stroke-opacity:1;fill:#dc3151;fill-opacity:1"
         d="M 0.0,0.0 L 5.0,-5.0 L -12.5,0.0 L 5.0,5.0 L 0.0,0.0 z "
         id="path3554-2" />
    </marker>
    <marker
       inkscape:isstock="true"
       style="overflow:visible;"
       id="Arrow1Mend-7"
       refX="0.0"
       refY="0.0"
       orient="auto"
       inkscape:stockid="Arrow1Mend">
      <path
         transform="scale(0.4) rotate(180) translate(10,0)"
         style="fill-rule:evenodd;stroke:#dc3151;stroke-width:1pt;stroke-opacity:1;fill:#dc3151;fill-opacity:1"
         d="M 0.0,0.0 L 5.0,-5.0 L -12.5,0.0 L 5.0,5.0 L 0.0,0.0 z "
         id="path3159-7" />
    </marker>
    <marker
       inkscape:isstock="true"
       style="overflow:visible"
       id="marker3460-0"
       refX="0.0"
       refY="0.0"
       orient="auto"
       inkscape:stockid="Arrow1Lstart">
      <path
         transform="scale(0.8) translate(12.5,0)"
         style="fill-rule:evenodd;stroke:#dc3151;stroke-width:1pt;stroke-opacity:1;fill:#dc3151;fill-opacity:1"
         d="M 0.0,0.0 L 5.0,-5.0 L -12.5,0.0 L 5.0,5.0 L 0.0,0.0 z "
         id="path3458-7" />
    </marker>
    <marker
       inkscape:isstock="true"
       style="overflow:visible"
       id="Arrow1Lstart-9"
       refX="0.0"
       refY="0.0"
       orient="auto"
       inkscape:stockid="Arrow1Lstart">
      <path
         transform="scale(0.8) translate(12.5,0)"
         style="fill-rule:evenodd;stroke:#dc3151;stroke-width:1pt;stroke-opacity:1;fill:#dc3151;fill-opacity:1"
         d="M 0.0,0.0 L 5.0,-5.0 L -12.5,0.0 L 5.0,5.0 L 0.0,0.0 z "
         id="path3150-5" />
    </marker>
    <marker
       inkscape:isstock="true"
       style="overflow:visible;"
       id="Arrow1Lend-0"
       refX="0.0"
       refY="0.0"
       orient="auto"
       inkscape:stockid="Arrow1Lend">
      <path
         transform="scale(0.8) rotate(180) translate(12.5,0)"
         style="fill-rule:evenodd;stroke:#dc3151;stroke-width:1pt;stroke-opacity:1;fill:#dc3151;fill-opacity:1"
         d="M 0.0,0.0 L 5.0,-5.0 L -12.5,0.0 L 5.0,5.0 L 0.0,0.0 z "
         id="path3153-7" />
    </marker>
  </defs>
  <sodipodi:namedview
     pagecolor="#ffffff"
     bordercolor="#666666"
     borderopacity="1"
     objecttolerance="10"
     gridtolerance="10"
     guidetolerance="10"
     inkscape:pageopacity="0"
     inkscape:pageshadow="2"
     inkscape:window-width="1920"
     inkscape:window-height="1136"
     id="namedview4"
     showgrid="false"
     inkscape:zoom="10"
     inkscape:cx="25.55"
     inkscape:cy="40"
     inkscape:window-x="1920"
     inkscape:window-y="27"
     inkscape:window-maximized="1"
     inkscape:current-layer="layer4" />
  <g
     inkscape:groupmode="layer"
     id="layer3"
     inkscape:label="blauerHintergrund">
    <rect
       style="fill:#bbbbe9;fill-opacity:1;stroke:none;stroke-width:1.60000002;stroke-linecap:round;stroke-linejoin:round;stroke-miterlimit:4;stroke-dasharray:none;stroke-opacity:0.99622354"
       id="rect5998"
       width="60.539062"
       height="59.501953"
       x="1.8691406"
       y="2.3496094" />
  </g>
  <g
     inkscape:label="gelbeZone"
     id="g6002"
     inkscape:groupmode="layer">
    <path
       sodipodi:nodetypes="ccccccc"
       inkscape:connector-curvature="0"
       id="path6000"
       d="m 19.4,10.8 34.100001,6.3 -8.3,16.200001 5.8,18.2 -34.800001,2.2 -2.4,-21.8 z"
       style="fill:#ffff80;fill-opacity:1;stroke:#c14141;stroke-width:1.60000002;stroke-linecap:round;stroke-linejoin:round;stroke-miterlimit:4;stroke-dasharray:none;stroke-opacity:0.99622348" />
  </g>
  <g
     id="g5520"
     style="display:inline"
     inkscape:label="blauesRaster"
     inkscape:groupmode="layer">
    <path
       style="fill:none;fill-opacity:1;stroke:#273378;stroke-width:0.69798428;stroke-linecap:round;stroke-linejoin:round;stroke-miterlimit:4;stroke-dasharray:none;stroke-opacity:0.99622354"
       d="m 47.197266,55.148438 v 2.302734 2.097656 0.101563 2.201171 h 15.210937 v -2.201171 -0.101563 -2.199219 -2.201171 z"
       id="rect4949-5-8-70-7"
       inkscape:connector-curvature="0" />
    <path
       style="fill:none;fill-opacity:1;stroke:#273378;stroke-width:0.69798428;stroke-linecap:round;stroke-linejoin:round;stroke-miterlimit:4;stroke-dasharray:none;stroke-opacity:0.99622354"
       d="m 47.197266,48.548828 v 2.302734 2.097657 0.101562 2.201172 h 15.210937 v -2.201172 -0.101562 -2.201172 -2.199219 z"
       id="rect4949-5-8-70"
       inkscape:connector-curvature="0" />
    <path
       style="fill:none;fill-opacity:1;stroke:#273378;stroke-width:0.69798428;stroke-linecap:round;stroke-linejoin:round;stroke-miterlimit:4;stroke-dasharray:none;stroke-opacity:0.99622354"
       d="m 47.197266,41.949219 v 2.302734 2.097656 0.101563 2.199219 h 15.210937 v -2.199219 -0.101563 -2.201171 -2.199219 z"
       id="rect4949-2-4-3"
       inkscape:connector-curvature="0" />
    <path
       style="fill:none;fill-opacity:1;stroke:#273378;stroke-width:0.69798428;stroke-linecap:round;stroke-linejoin:round;stroke-miterlimit:4;stroke-dasharray:none;stroke-opacity:0.99622354"
       d="m 47.197266,35.349609 v 2.199219 0.101563 2.097656 0.103515 2.199219 h 15.210937 v -2.199219 -0.103515 -2.097656 -0.101563 -2.199219 z"
       id="rect4949-1-20-0"
       inkscape:connector-curvature="0" />
    <path
       style="fill:none;fill-opacity:1;stroke:#273378;stroke-width:0.69798428;stroke-linecap:round;stroke-linejoin:round;stroke-miterlimit:4;stroke-dasharray:none;stroke-opacity:0.99622354"
       d="m 47.197266,28.748047 v 2.302734 2.097657 0.103515 2.199219 h 15.210937 v -2.199219 -0.103515 -2.199219 -2.201172 z"
       id="rect4949-6-0"
       inkscape:connector-curvature="0" />
    <path
       style="fill:none;fill-opacity:1;stroke:#273378;stroke-width:0.69798428;stroke-linecap:round;stroke-linejoin:round;stroke-miterlimit:4;stroke-dasharray:none;stroke-opacity:0.99622354"
       d="m 47.197266,22.148438 v 2.302734 2.097656 0.101563 2.201171 h 15.210937 v -2.201171 -0.101563 -2.199219 -2.201171 z"
       id="rect4949-4-9"
       inkscape:connector-curvature="0" />
    <path
       style="fill:none;fill-opacity:1;stroke:#273378;stroke-width:0.69798428;stroke-linecap:round;stroke-linejoin:round;stroke-miterlimit:4;stroke-dasharray:none;stroke-opacity:0.99622354"
       d="m 47.197266,15.548828 v 2.302734 2.097657 0.101562 2.201172 h 15.210937 v -2.201172 -0.101562 -2.201172 -2.199219 z"
       id="rect4949-6-5"
       inkscape:connector-curvature="0" />
    <path
       style="fill:none;fill-opacity:1;stroke:#273378;stroke-width:0.69798428;stroke-linecap:round;stroke-linejoin:round;stroke-miterlimit:4;stroke-dasharray:none;stroke-opacity:0.99622354"
       d="m 47.197266,8.9492188 v 2.3027342 2.097656 0.101563 2.199219 H 62.408203 V 13.451172 13.349609 11.148438 8.9492188 Z"
       id="rect4949-5-8"
       inkscape:connector-curvature="0" />
    <path
       style="fill:none;fill-opacity:1;stroke:#273378;stroke-width:0.69798428;stroke-linecap:round;stroke-linejoin:round;stroke-miterlimit:4;stroke-dasharray:none;stroke-opacity:0.99622354"
       d="M 47.197266,2.3496094 V 4.6503906 6.7480469 6.8515625 9.0507812 H 62.408203 V 6.8515625 6.7480469 4.5488281 2.3496094 Z"
       id="rect4949-1-7"
       inkscape:connector-curvature="0" />
    <path
       style="fill:none;fill-opacity:1;stroke:#273378;stroke-width:0.69798428;stroke-linecap:round;stroke-linejoin:round;stroke-miterlimit:4;stroke-dasharray:none;stroke-opacity:0.99622354"
       d="m 1.8691406,55.148438 v 2.302734 2.097656 0.101563 2.201171 H 17.080078 v -2.201171 -0.101563 -2.199219 -2.201171 z"
       id="rect4949-1-20-17-1"
       inkscape:connector-curvature="0" />
    <path
       style="fill:none;fill-opacity:1;stroke:#273378;stroke-width:0.69798428;stroke-linecap:round;stroke-linejoin:round;stroke-miterlimit:4;stroke-dasharray:none;stroke-opacity:0.99622354"
       d="m 32.087891,55.148438 v 2.302734 2.097656 0.101563 2.201171 h 15.210937 v -2.201171 -0.101563 -2.199219 -2.201171 z"
       id="rect4949-8-6-7"
       inkscape:connector-curvature="0" />
    <path
       style="fill:none;fill-opacity:1;stroke:#273378;stroke-width:0.69798428;stroke-linecap:round;stroke-linejoin:round;stroke-miterlimit:4;stroke-dasharray:none;stroke-opacity:0.99622354"
       d="m 16.978516,55.148438 v 2.302734 2.097656 0.101563 2.201171 h 15.210937 v -2.201171 -0.101563 -2.199219 -2.201171 z"
       id="rect4949-5-96-2-0"
       inkscape:connector-curvature="0" />
    <path
       style="fill:none;fill-opacity:1;stroke:#273378;stroke-width:0.69798428;stroke-linecap:round;stroke-linejoin:round;stroke-miterlimit:4;stroke-dasharray:none;stroke-opacity:0.99622354"
       d="m 32.087891,48.548828 v 2.199219 0.103515 2.097657 0.101562 2.201172 h 15.210937 v -2.201172 -0.101562 -2.097657 -0.103515 -2.199219 z"
       id="rect4949-1-20-17"
       inkscape:connector-curvature="0" />
    <path
       style="fill:none;fill-opacity:1;stroke:#273378;stroke-width:0.69798428;stroke-linecap:round;stroke-linejoin:round;stroke-miterlimit:4;stroke-dasharray:none;stroke-opacity:0.99622354"
       d="m 1.8691406,48.548828 v 2.199219 0.103515 2.097657 0.101562 2.201172 H 17.080078 v -2.201172 -0.101562 -2.097657 -0.103515 -2.199219 z"
       id="rect4949-2-04-5"
       inkscape:connector-curvature="0" />
    <path
       style="fill:none;fill-opacity:1;stroke:#273378;stroke-width:0.69798428;stroke-linecap:round;stroke-linejoin:round;stroke-miterlimit:4;stroke-dasharray:none;stroke-opacity:0.99622354"
       d="m 16.978516,48.548828 v 2.302734 2.097657 0.101562 2.201172 h 15.210937 v -2.201172 -0.101562 -2.201172 -2.199219 z"
       id="rect4949-8-6"
       inkscape:connector-curvature="0" />
    <path
       style="fill:none;fill-opacity:1;stroke:#273378;stroke-width:0.69798428;stroke-linecap:round;stroke-linejoin:round;stroke-miterlimit:4;stroke-dasharray:none;stroke-opacity:0.99622354"
       d="m 32.087891,41.949219 v 2.199219 0.103515 2.097656 0.101563 2.199219 h 15.210937 v -2.199219 -0.101563 -2.097656 -0.103515 -2.199219 z"
       id="rect4949-2-8-1"
       inkscape:connector-curvature="0" />
    <path
       style="fill:none;fill-opacity:1;stroke:#273378;stroke-width:0.69798428;stroke-linecap:round;stroke-linejoin:round;stroke-miterlimit:4;stroke-dasharray:none;stroke-opacity:0.99622354"
       d="m 16.978516,41.949219 v 2.302734 2.097656 0.101563 2.199219 h 15.210937 v -2.199219 -0.101563 -2.201171 -2.199219 z"
       id="rect4949-2-06-2"
       inkscape:connector-curvature="0" />
    <path
       style="fill:none;fill-opacity:1;stroke:#273378;stroke-width:0.69798428;stroke-linecap:round;stroke-linejoin:round;stroke-miterlimit:4;stroke-dasharray:none;stroke-opacity:0.99622354"
       d="m 16.978516,35.349609 v 2.300782 2.097656 0.103515 2.199219 h 15.210937 v -2.199219 -0.103515 -2.199219 -2.199219 z"
       id="rect4949-4-3"
       inkscape:connector-curvature="0" />
    <path
       style="fill:none;fill-opacity:1;stroke:#273378;stroke-width:0.69798428;stroke-linecap:round;stroke-linejoin:round;stroke-miterlimit:4;stroke-dasharray:none;stroke-opacity:0.99622354"
       d="m 1.8691406,41.949219 v 2.302734 2.097656 0.101563 2.199219 H 17.080078 v -2.199219 -0.101563 -2.201171 -2.199219 z"
       id="rect4949-5-13"
       inkscape:connector-curvature="0" />
    <path
       style="fill:none;fill-opacity:1;stroke:#273378;stroke-width:0.69798428;stroke-linecap:round;stroke-linejoin:round;stroke-miterlimit:4;stroke-dasharray:none;stroke-opacity:0.99622354"
       d="m 32.087891,35.349609 v 2.199219 0.101563 2.097656 0.103515 2.199219 h 15.210937 v -2.199219 -0.103515 -2.097656 -0.101563 -2.199219 z"
       id="rect4949-2-04-81"
       inkscape:connector-curvature="0" />
    <path
       style="fill:none;fill-opacity:1;stroke:#273378;stroke-width:0.69798428;stroke-linecap:round;stroke-linejoin:round;stroke-miterlimit:4;stroke-dasharray:none;stroke-opacity:0.99622354"
       d="m 1.8691406,35.349609 v 2.199219 0.101563 2.201171 2.199219 H 17.080078 v -2.302734 -2.097656 -0.101563 -2.199219 z"
       id="rect4949-2-8-4"
       inkscape:connector-curvature="0" />
    <path
       style="fill:none;fill-opacity:1;stroke:#273378;stroke-width:0.69798428;stroke-linecap:round;stroke-linejoin:round;stroke-miterlimit:4;stroke-dasharray:none;stroke-opacity:0.99622354"
       d="m 1.8691406,28.748047 v 2.201172 0.101562 2.097657 0.103515 2.199219 H 17.080078 v -2.199219 -0.103515 -2.097657 -0.101562 -2.201172 z"
       id="rect4949-2-06-7"
       inkscape:connector-curvature="0" />
    <path
       style="fill:none;fill-opacity:1;stroke:#273378;stroke-width:0.69798428;stroke-linecap:round;stroke-linejoin:round;stroke-miterlimit:4;stroke-dasharray:none;stroke-opacity:0.99622354"
       d="m 16.978516,28.748047 v 2.201172 0.101562 2.097657 0.103515 2.199219 h 15.210937 v -2.199219 -0.103515 -2.097657 -0.101562 -2.201172 z"
       id="rect4949-9-4"
       inkscape:connector-curvature="0" />
    <path
       style="fill:none;fill-opacity:1;stroke:#273378;stroke-width:0.69798428;stroke-linecap:round;stroke-linejoin:round;stroke-miterlimit:4;stroke-dasharray:none;stroke-opacity:0.99622354"
       d="m 32.087891,28.748047 v 2.201172 0.101562 2.097657 0.103515 2.199219 h 15.210937 v -2.199219 -0.103515 -2.097657 -0.101562 -2.201172 z"
       id="rect4949-1-26-6"
       inkscape:connector-curvature="0" />
    <path
       style="fill:none;fill-opacity:1;stroke:#273378;stroke-width:0.69798428;stroke-linecap:round;stroke-linejoin:round;stroke-miterlimit:4;stroke-dasharray:none;stroke-opacity:0.99622354"
       d="m 32.087891,22.148438 v 2.302734 2.097656 0.101563 2.201171 h 15.210937 v -2.201171 -0.101563 -2.199219 -2.201171 z"
       id="rect4949-15"
       inkscape:connector-curvature="0" />
    <path
       style="fill:none;fill-opacity:1;stroke:#273378;stroke-width:0.69798428;stroke-linecap:round;stroke-linejoin:round;stroke-miterlimit:4;stroke-dasharray:none;stroke-opacity:0.99622354"
       d="m 16.978516,22.148438 v 2.201171 0.101563 2.097656 0.101563 2.201171 h 15.210937 v -2.201171 -0.101563 -2.097656 -0.101563 -2.201171 z"
       id="rect4949-1-20-1"
       inkscape:connector-curvature="0" />
    <path
       style="fill:none;fill-opacity:1;stroke:#273378;stroke-width:0.69798428;stroke-linecap:round;stroke-linejoin:round;stroke-miterlimit:4;stroke-dasharray:none;stroke-opacity:0.99622354"
       d="m 1.8691406,22.148438 v 2.302734 2.097656 0.101563 2.201171 H 17.080078 v -2.201171 -0.101563 -2.199219 -2.201171 z"
       id="rect4949-8-5"
       inkscape:connector-curvature="0" />
    <path
       style="fill:none;fill-opacity:1;stroke:#273378;stroke-width:0.69798428;stroke-linecap:round;stroke-linejoin:round;stroke-miterlimit:4;stroke-dasharray:none;stroke-opacity:0.99622354"
       d="m 32.087891,15.548828 v 2.199219 0.103515 2.097657 0.101562 2.201172 h 15.210937 v -2.201172 -0.101562 -2.097657 -0.103515 -2.199219 z"
       id="rect4949-2-4-9"
       inkscape:connector-curvature="0" />
    <path
       style="fill:none;fill-opacity:1;stroke:#273378;stroke-width:0.69798428;stroke-linecap:round;stroke-linejoin:round;stroke-miterlimit:4;stroke-dasharray:none;stroke-opacity:0.99622354"
       d="m 1.8691406,15.548828 v 2.199219 0.103515 2.097657 0.101562 2.201172 H 17.080078 v -2.201172 -0.101562 -2.097657 -0.103515 -2.199219 z"
       id="rect4949-7-9"
       inkscape:connector-curvature="0" />
    <path
       style="fill:none;fill-opacity:1;stroke:#273378;stroke-width:0.69798428;stroke-linecap:round;stroke-linejoin:round;stroke-miterlimit:4;stroke-dasharray:none;stroke-opacity:0.99622354"
       d="m 16.978516,15.548828 v 2.199219 0.103515 2.097657 0.101562 2.201172 h 15.210937 v -2.201172 -0.101562 -2.097657 -0.103515 -2.199219 z"
       id="rect4949-4-0"
       inkscape:connector-curvature="0" />
    <path
       style="fill:none;fill-opacity:1;stroke:#273378;stroke-width:0.69798428;stroke-linecap:round;stroke-linejoin:round;stroke-miterlimit:4;stroke-dasharray:none;stroke-opacity:0.99622354"
       d="m 1.8691406,8.9492188 v 2.3027342 2.097656 0.101563 2.199219 H 17.080078 V 13.451172 13.349609 11.148438 8.9492188 Z"
       id="rect4949-1-20"
       inkscape:connector-curvature="0" />
    <path
       style="fill:none;fill-opacity:1;stroke:#273378;stroke-width:0.69798428;stroke-linecap:round;stroke-linejoin:round;stroke-miterlimit:4;stroke-dasharray:none;stroke-opacity:0.99622354"
       d="m 32.087891,8.9492188 v 2.3027342 2.097656 0.101563 2.199219 H 47.298828 V 13.451172 13.349609 11.148438 8.9492188 Z"
       id="rect4949-8"
       inkscape:connector-curvature="0" />
    <path
       style="fill:none;fill-opacity:1;stroke:#273378;stroke-width:0.69798428;stroke-linecap:round;stroke-linejoin:round;stroke-miterlimit:4;stroke-dasharray:none;stroke-opacity:0.99622354"
       d="m 16.978516,8.9492188 v 2.3027342 2.097656 0.101563 2.199219 H 32.189453 V 13.451172 13.349609 11.148438 8.9492188 Z"
       id="rect4949-5-96"
       inkscape:connector-curvature="0" />
    <path
       style="fill:none;fill-opacity:1;stroke:#273378;stroke-width:0.69798428;stroke-linecap:round;stroke-linejoin:round;stroke-miterlimit:4;stroke-dasharray:none;stroke-opacity:0.99622354"
       d="M 1.8691406,2.3496094 V 4.6503906 6.7480469 6.8515625 9.0507812 H 17.080078 V 6.8515625 6.7480469 4.5488281 2.3496094 Z"
       id="rect4949-2-06"
       inkscape:connector-curvature="0" />
    <path
       style="fill:none;fill-opacity:1;stroke:#273378;stroke-width:0.69798428;stroke-linecap:round;stroke-linejoin:round;stroke-miterlimit:4;stroke-dasharray:none;stroke-opacity:0.99622354"
       d="M 16.978516,2.3496094 V 4.6503906 6.7480469 6.8515625 9.0507812 H 32.189453 V 6.8515625 6.7480469 4.5488281 2.3496094 Z"
       id="rect4949-2-4"
       inkscape:connector-curvature="0" />
    <path
       style="fill:none;fill-opacity:1;stroke:#273378;stroke-width:0.69798428;stroke-linecap:round;stroke-linejoin:round;stroke-miterlimit:4;stroke-dasharray:none;stroke-opacity:0.99622354"
       d="M 32.087891,2.3496094 V 4.6503906 6.7480469 6.8515625 9.0507812 H 47.298828 V 6.8515625 6.7480469 4.5488281 2.3496094 Z"
       id="rect4949-5-4"
       inkscape:connector-curvature="0" />
  </g>
  <g
     inkscape:groupmode="layer"
     id="layer2"
     inkscape:label="Zone">
    <path
       style="fill:none;fill-opacity:0.76981135;stroke:#c14141;stroke-width:1.60000002;stroke-linecap:round;stroke-linejoin:round;stroke-miterlimit:4;stroke-dasharray:none;stroke-opacity:0.99622348"
       d="m 19.4,10.8 34.100001,6.3 -8.3,16.200001 5.8,18.2 -34.800001,2.2 -2.4,-21.8 z"
       id="rect5994"
       inkscape:connector-curvature="0"
       sodipodi:nodetypes="ccccccc" />
  </g>
  <g
     inkscape:groupmode="layer"
     id="layer4"
     inkscape:label="Z">
    <g
       aria-label="Z"
       style="font-style:normal;font-variant:normal;font-weight:bold;font-stretch:normal;font-size:29.33333397px;line-height:1.25;font-family:sans-serif;-inkscape-font-specification:'sans-serif Bold';font-variant-ligatures:normal;font-variant-caps:normal;font-variant-numeric:normal;font-feature-settings:normal;text-align:start;letter-spacing:0px;word-spacing:0px;writing-mode:lr-tb;text-anchor:start;fill:#db0000;fill-opacity:1;stroke:#0000f2;stroke-opacity:0.99622351"
       id="flowRoot6005"
       transform="matrix(1,0,0,1.1964074,0,-7.1522864)">
      <path
         d="m 21.647135,22.66862 h 17.975261 v 3.33724 L 28.14974,39.884766 h 11.802083 v 4.167969 H 21.317708 v -3.33724 L 32.790365,26.836589 h -11.14323 z"
         id="path6013"
         inkscape:connector-curvature="0"
         style="fill:#db0000;fill-opacity:1;stroke:#0000f2;stroke-opacity:0.99622351" />
    </g>
  </g>
</svg>
